<?xml version="1.0" encoding="UTF-8" standalone="no"?>
<!-- Created with Inkscape (http://www.inkscape.org/) -->

<svg
   xmlns:dc="http://purl.org/dc/elements/1.1/"
   xmlns:cc="http://creativecommons.org/ns#"
   xmlns:rdf="http://www.w3.org/1999/02/22-rdf-syntax-ns#"
   xmlns:svg="http://www.w3.org/2000/svg"
   xmlns="http://www.w3.org/2000/svg"
   xmlns:sodipodi="http://sodipodi.sourceforge.net/DTD/sodipodi-0.dtd"
   xmlns:inkscape="http://www.inkscape.org/namespaces/inkscape"
   width="216.58034mm"
   height="55.764755mm"
   viewBox="0 0 216.58034 55.764755"
   version="1.1"
   id="svg8"
   inkscape:version="0.92.2 2405546, 2018-03-11"
   sodipodi:docname="automatizacion_de_la_produccion_bajo_control_obrero.svg">
  <defs
     id="defs2" />
  <sodipodi:namedview
     id="base"
     pagecolor="#ffffff"
     bordercolor="#666666"
     borderopacity="1.0"
     inkscape:pageopacity="0.0"
     inkscape:pageshadow="2"
     inkscape:zoom="0.49497475"
     inkscape:cx="345.76067"
     inkscape:cy="-31.864397"
     inkscape:document-units="mm"
     inkscape:current-layer="text4506-4"
     showgrid="false"
     inkscape:window-width="1280"
     inkscape:window-height="778"
     inkscape:window-x="0"
     inkscape:window-y="22"
     inkscape:window-maximized="0"
     fit-margin-top="0"
     fit-margin-left="0"
     fit-margin-right="0"
     fit-margin-bottom="0" />
  <metadata
     id="metadata5">
    <rdf:RDF>
      <cc:Work
         rdf:about="">
        <dc:format>image/svg+xml</dc:format>
        <dc:type
           rdf:resource="http://purl.org/dc/dcmitype/StillImage" />
        <dc:title></dc:title>
      </cc:Work>
    </rdf:RDF>
  </metadata>
  <g
     inkscape:label="Capa 1"
     inkscape:groupmode="layer"
     id="layer1"
     transform="translate(3.4017861,-74.925713)">
    <g
       id="g4594"
       inkscape:export-xdpi="102"
       inkscape:export-ydpi="102">
      <rect
         y="74.925713"
         x="-3.4017861"
         height="55.764755"
         width="216.58034"
         id="rect4581"
         style="opacity:1;fill:#ffffff;fill-opacity:1;stroke:none;stroke-width:1.69548345;stroke-miterlimit:4;stroke-dasharray:none;stroke-opacity:0.99302326" />
      <g
         id="g4579">
        <g
           aria-label="automatizacion"
           style="font-style:normal;font-variant:normal;font-weight:normal;font-stretch:normal;font-size:15.00000095px;line-height:1.25;font-family:'League Gothic';-inkscape-font-specification:'League Gothic';letter-spacing:0px;word-spacing:0px;fill:#000000;fill-opacity:1;stroke:none;stroke-width:0.375"
           id="text4506">
          <path
             d="m 17.499993,96.672615 h -5.000001 v -5 H 9.9999922 v 5 H 4.9999919 V 85.422614 H 6.249992 v -1.25 h 10.000001 v 1.25 h 1.25 z m -5.000001,-7.5 V 86.672614 H 9.9999922 v 2.500001 z"
             style="font-style:normal;font-variant:normal;font-weight:normal;font-stretch:normal;font-family:'8BIT WONDER';-inkscape-font-specification:'8BIT WONDER';stroke-width:0.375"
             id="path4833" />
          <path
             d="m 32.499994,95.422615 h -1.25 v 1.25 H 21.249993 v -1.25 h -1.25 V 84.172614 h 5 v 10.000001 h 2.5 V 84.172614 h 5.000001 z"
             style="font-style:normal;font-variant:normal;font-weight:normal;font-stretch:normal;font-family:'8BIT WONDER';-inkscape-font-specification:'8BIT WONDER';stroke-width:0.375"
             id="path4835" />
          <path
             d="m 47.499995,86.672614 h -3.750001 v 10.000001 h -5 V 86.672614 h -3.75 v -2.5 h 12.500001 z"
             style="font-style:normal;font-variant:normal;font-weight:normal;font-stretch:normal;font-family:'8BIT WONDER';-inkscape-font-specification:'8BIT WONDER';stroke-width:0.375"
             id="path4837" />
          <path
             d="m 62.499997,95.422615 h -1.250001 v 1.25 h -10 v -1.25 h -1.25 V 85.422614 h 1.25 v -1.25 h 10 v 1.25 h 1.250001 z m -5.000001,-1.25 v -7.500001 h -2.5 v 7.500001 z"
             style="font-style:normal;font-variant:normal;font-weight:normal;font-stretch:normal;font-family:'8BIT WONDER';-inkscape-font-specification:'8BIT WONDER';stroke-width:0.375"
             id="path4839" />
          <path
             d="m 84.999997,96.672615 h -5 V 86.672614 h -2.5 V 96.672615 H 72.499996 V 86.672614 h -2.5 v 10.000001 h -5 V 84.172614 h 18.750001 v 1.25 h 1.25 z"
             style="font-style:normal;font-variant:normal;font-weight:normal;font-stretch:normal;font-family:'8BIT WONDER';-inkscape-font-specification:'8BIT WONDER';stroke-width:0.375"
             id="path4841" />
          <path
             d="m 100,96.672615 h -5 v -5 h -2.5 v 5 h -5 V 85.422614 h 1.25 v -1.25 h 10 v 1.25 H 100 Z m -5,-7.5 v -2.500001 h -2.5 v 2.500001 z"
             style="font-style:normal;font-variant:normal;font-weight:normal;font-stretch:normal;font-family:'8BIT WONDER';-inkscape-font-specification:'8BIT WONDER';stroke-width:0.375"
             id="path4843" />
          <path
             d="m 115,86.672614 h -3.75 v 10.000001 h -5 V 86.672614 h -3.75 v -2.5 H 115 Z"
             style="font-style:normal;font-variant:normal;font-weight:normal;font-stretch:normal;font-family:'8BIT WONDER';-inkscape-font-specification:'8BIT WONDER';stroke-width:0.375"
             id="path4845" />
          <path
             d="m 122.5,96.672615 h -5 V 84.172614 h 5 z"
             style="font-style:normal;font-variant:normal;font-weight:normal;font-stretch:normal;font-family:'8BIT WONDER';-inkscape-font-specification:'8BIT WONDER';stroke-width:0.375"
             id="path4847" />
          <path
             d="M 137.5,96.672615 H 125 v -6.25 h 1.25 v -1.25 h 6.25 V 86.672614 H 125 v -2.5 h 12.5 v 6.250001 h -1.25 v 1.25 H 130 v 2.5 h 7.5 z"
             style="font-style:normal;font-variant:normal;font-weight:normal;font-stretch:normal;font-family:'8BIT WONDER';-inkscape-font-specification:'8BIT WONDER';stroke-width:0.375"
             id="path4849" />
          <path
             d="m 152.50001,96.672615 h -5 v -5 h -2.5 v 5 h -5 V 85.422614 h 1.25 v -1.25 h 10 v 1.25 h 1.25 z m -5,-7.5 v -2.500001 h -2.5 v 2.500001 z"
             style="font-style:normal;font-variant:normal;font-weight:normal;font-stretch:normal;font-family:'8BIT WONDER';-inkscape-font-specification:'8BIT WONDER';stroke-width:0.375"
             id="path4851" />
          <path
             d="m 167.50001,96.672615 h -11.25 v -1.25 h -1.25 V 85.422614 h 1.25 v -1.25 h 11.25 v 2.5 h -7.5 v 7.500001 h 7.5 z"
             style="font-style:normal;font-variant:normal;font-weight:normal;font-stretch:normal;font-family:'8BIT WONDER';-inkscape-font-specification:'8BIT WONDER';stroke-width:0.375"
             id="path4853" />
          <path
             d="m 175.00001,96.672615 h -5 V 84.172614 h 5 z"
             style="font-style:normal;font-variant:normal;font-weight:normal;font-stretch:normal;font-family:'8BIT WONDER';-inkscape-font-specification:'8BIT WONDER';stroke-width:0.375"
             id="path4855" />
          <path
             d="m 190.00001,95.422615 h -1.25 v 1.25 h -10 v -1.25 h -1.25 V 85.422614 h 1.25 v -1.25 h 10 v 1.25 h 1.25 z m -5,-1.25 v -7.500001 h -2.5 v 7.500001 z"
             style="font-style:normal;font-variant:normal;font-weight:normal;font-stretch:normal;font-family:'8BIT WONDER';-inkscape-font-specification:'8BIT WONDER';stroke-width:0.375"
             id="path4857" />
          <path
             d="m 205.00001,96.672615 h -5 V 86.672614 h -2.5 v 10.000001 h -5 V 84.172614 h 11.25 v 1.25 h 1.25 z"
             style="font-style:normal;font-variant:normal;font-weight:normal;font-stretch:normal;font-family:'8BIT WONDER';-inkscape-font-specification:'8BIT WONDER';stroke-width:0.375"
             id="path4859" />
        </g>
        <g
           aria-label="de la produccion"
           style="font-style:normal;font-variant:normal;font-weight:normal;font-stretch:normal;font-size:13.95348835px;line-height:1.25;font-family:'League Gothic';-inkscape-font-specification:'League Gothic';letter-spacing:0px;word-spacing:0px;fill:#000000;fill-opacity:1;stroke:none;stroke-width:0.3488372"
           id="text4506-6">
          <path
             d="M 16.627911,108.07628 H 15.46512 v 1.16279 H 5.0000038 V 97.61116 H 15.46512 v 1.162791 h 1.162791 z m -4.651163,-1.16279 V 99.936742 H 9.6511666 v 6.976748 z"
             style="font-style:normal;font-variant:normal;font-weight:normal;font-stretch:normal;font-family:'8BIT WONDER';-inkscape-font-specification:'8BIT WONDER';stroke-width:0.3488372"
             id="path4862" />
          <path
             d="M 30.581399,109.23907 H 20.116283 v -1.16279 h -1.162791 v -9.302329 h 1.162791 V 97.61116 h 10.465116 v 2.325582 h -6.976744 v 2.325578 h 3.488372 v 2.32558 h -3.488372 v 2.32559 h 6.976744 z"
             style="font-style:normal;font-variant:normal;font-weight:normal;font-stretch:normal;font-family:'8BIT WONDER';-inkscape-font-specification:'8BIT WONDER';stroke-width:0.3488372"
             id="path4864" />
          <path
             d="M 51.511631,109.23907 H 39.883724 V 97.61116 h 4.651163 v 9.30233 h 6.976744 z"
             style="font-style:normal;font-variant:normal;font-weight:normal;font-stretch:normal;font-family:'8BIT WONDER';-inkscape-font-specification:'8BIT WONDER';stroke-width:0.3488372"
             id="path4866" />
          <path
             d="m 65.465119,109.23907 h -4.651163 v -4.65117 h -2.325582 v 4.65117 H 53.837212 V 98.773951 h 1.16279 V 97.61116 h 9.302326 v 1.162791 h 1.162791 z m -4.651163,-6.97675 v -2.325578 h -2.325582 v 2.325578 z"
             style="font-style:normal;font-variant:normal;font-weight:normal;font-stretch:normal;font-family:'8BIT WONDER';-inkscape-font-specification:'8BIT WONDER';stroke-width:0.3488372"
             id="path4868" />
          <path
             d="m 86.395352,103.42511 h -1.162791 v 1.16279 h -5.813954 v 4.65117 H 74.767445 V 97.61116 h 10.465116 v 1.162791 h 1.162791 z m -4.651163,-1.16279 v -2.325578 h -2.325582 v 2.325578 z"
             style="font-style:normal;font-variant:normal;font-weight:normal;font-stretch:normal;font-family:'8BIT WONDER';-inkscape-font-specification:'8BIT WONDER';stroke-width:0.3488372"
             id="path4870" />
          <path
             d="m 100.34884,109.23907 h -4.65116 v -4.65117 h -2.325581 v 4.65117 H 88.720936 V 97.61116 h 10.465116 v 1.162791 h 1.162788 v 3.488369 h -1.162788 v 2.32558 h 1.162788 z m -4.65116,-6.97675 v -2.325578 h -2.325581 v 2.325578 z"
             style="font-style:normal;font-variant:normal;font-weight:normal;font-stretch:normal;font-family:'8BIT WONDER';-inkscape-font-specification:'8BIT WONDER';stroke-width:0.3488372"
             id="path4872" />
          <path
             d="m 114.30233,108.07628 h -1.16279 v 1.16279 h -9.30233 v -1.16279 h -1.16279 v -9.302329 h 1.16279 V 97.61116 h 9.30233 v 1.162791 h 1.16279 z m -4.65117,-1.16279 v -6.976748 h -2.32558 v 6.976748 z"
             style="font-style:normal;font-variant:normal;font-weight:normal;font-stretch:normal;font-family:'8BIT WONDER';-inkscape-font-specification:'8BIT WONDER';stroke-width:0.3488372"
             id="path4874" />
          <path
             d="m 128.25582,108.07628 h -1.16279 v 1.16279 H 116.62791 V 97.61116 h 10.46512 v 1.162791 h 1.16279 z m -4.65117,-1.16279 v -6.976748 h -2.32558 v 6.976748 z"
             style="font-style:normal;font-variant:normal;font-weight:normal;font-stretch:normal;font-family:'8BIT WONDER';-inkscape-font-specification:'8BIT WONDER';stroke-width:0.3488372"
             id="path4876" />
          <path
             d="m 142.20931,108.07628 h -1.16279 v 1.16279 h -9.30233 v -1.16279 H 130.5814 V 97.61116 h 4.65116 v 9.30233 h 2.32559 v -9.30233 h 4.65116 z"
             style="font-style:normal;font-variant:normal;font-weight:normal;font-stretch:normal;font-family:'8BIT WONDER';-inkscape-font-specification:'8BIT WONDER';stroke-width:0.3488372"
             id="path4878" />
          <path
             d="m 156.16279,109.23907 h -10.46511 v -1.16279 h -1.16279 v -9.302329 h 1.16279 V 97.61116 h 10.46511 v 2.325582 h -6.97674 v 6.976748 h 6.97674 z"
             style="font-style:normal;font-variant:normal;font-weight:normal;font-stretch:normal;font-family:'8BIT WONDER';-inkscape-font-specification:'8BIT WONDER';stroke-width:0.3488372"
             id="path4880" />
          <path
             d="m 170.11628,109.23907 h -10.46511 v -1.16279 h -1.16279 v -9.302329 h 1.16279 V 97.61116 h 10.46511 v 2.325582 h -6.97674 v 6.976748 h 6.97674 z"
             style="font-style:normal;font-variant:normal;font-weight:normal;font-stretch:normal;font-family:'8BIT WONDER';-inkscape-font-specification:'8BIT WONDER';stroke-width:0.3488372"
             id="path4882" />
          <path
             d="m 177.09303,109.23907 h -4.65116 V 97.61116 h 4.65116 z"
             style="font-style:normal;font-variant:normal;font-weight:normal;font-stretch:normal;font-family:'8BIT WONDER';-inkscape-font-specification:'8BIT WONDER';stroke-width:0.3488372"
             id="path4884" />
          <path
             d="m 191.04652,108.07628 h -1.16279 v 1.16279 h -9.30233 v -1.16279 h -1.16279 v -9.302329 h 1.16279 V 97.61116 h 9.30233 v 1.162791 h 1.16279 z m -4.65116,-1.16279 v -6.976748 h -2.32558 v 6.976748 z"
             style="font-style:normal;font-variant:normal;font-weight:normal;font-stretch:normal;font-family:'8BIT WONDER';-inkscape-font-specification:'8BIT WONDER';stroke-width:0.3488372"
             id="path4886" />
          <path
             d="m 205,109.23907 h -4.65117 v -9.302328 h -2.32558 v 9.302328 h -4.65116 V 97.61116 h 10.46512 v 1.162791 H 205 Z"
             style="font-style:normal;font-variant:normal;font-weight:normal;font-stretch:normal;font-family:'8BIT WONDER';-inkscape-font-specification:'8BIT WONDER';stroke-width:0.3488372"
             id="path4888" />
        </g>
        <g
           id="g4568"
           transform="matrix(0.99074073,0,0,0.99074073,1.8981507,1.1080679)">
          <g
             aria-label="bajo control obrero"
             style="font-style:normal;font-variant:normal;font-weight:normal;font-stretch:normal;font-size:11.21495342px;line-height:1.25;font-family:'League Gothic';-inkscape-font-specification:'League Gothic';letter-spacing:0px;word-spacing:0px;fill:#000000;fill-opacity:1;stroke:none;stroke-width:0.28037381"
             id="text4506-4">
            <path
               d="m 14.345795,118.73659 h -0.93458 v 0.93458 H 5 v -9.34579 h 8.411215 v 0.93458 h 0.93458 v 2.80374 h -0.93458 v 1.86916 h 0.93458 z m -3.738318,-4.67289 v -1.86916 H 8.7383178 v 1.86916 z m 0,3.73831 v -1.86915 H 8.7383178 v 1.86915 z"
               style="font-style:normal;font-variant:normal;font-weight:normal;font-stretch:normal;font-family:'8BIT WONDER';-inkscape-font-specification:'8BIT WONDER';stroke-width:0.28037381"
               id="path4891" />
            <path
               d="M 25.560748,119.67117 H 21.82243 v -3.73831 h -1.869159 v 3.73831 h -3.738318 v -8.41121 h 0.93458 v -0.93458 h 7.476635 v 0.93458 h 0.93458 z M 21.82243,114.0637 v -1.86916 h -1.869159 v 1.86916 z"
               style="font-style:normal;font-variant:normal;font-weight:normal;font-stretch:normal;font-family:'8BIT WONDER';-inkscape-font-specification:'8BIT WONDER';stroke-width:0.28037381"
               id="path4893" />
            <path
               d="m 36.775701,118.73659 h -0.934579 v 0.93458 h -8.411215 v -1.86916 h 5.607477 v -7.47663 h 3.738317 z"
               style="font-style:normal;font-variant:normal;font-weight:normal;font-stretch:normal;font-family:'8BIT WONDER';-inkscape-font-specification:'8BIT WONDER';stroke-width:0.28037381"
               id="path4895" />
            <path
               d="m 47.990654,118.73659 h -0.93458 v 0.93458 h -7.476635 v -0.93458 h -0.93458 v -7.47663 h 0.93458 v -0.93458 h 7.476635 v 0.93458 h 0.93458 z m -3.738318,-0.93458 v -5.60747 h -1.869159 v 5.60747 z"
               style="font-style:normal;font-variant:normal;font-weight:normal;font-stretch:normal;font-family:'8BIT WONDER';-inkscape-font-specification:'8BIT WONDER';stroke-width:0.28037381"
               id="path4897" />
            <path
               d="m 64.813083,119.67117 h -8.411215 v -0.93458 h -0.934579 v -7.47663 h 0.934579 v -0.93458 h 8.411215 v 1.86916 h -5.607476 v 5.60747 h 5.607476 z"
               style="font-style:normal;font-variant:normal;font-weight:normal;font-stretch:normal;font-family:'8BIT WONDER';-inkscape-font-specification:'8BIT WONDER';stroke-width:0.28037381"
               id="path4899" />
            <path
               d="m 76.028038,118.73659 h -0.93458 v 0.93458 h -7.476635 v -0.93458 h -0.93458 v -7.47663 h 0.93458 v -0.93458 h 7.476635 v 0.93458 h 0.93458 z m -3.738318,-0.93458 v -5.60747 h -1.869159 v 5.60747 z"
               style="font-style:normal;font-variant:normal;font-weight:normal;font-stretch:normal;font-family:'8BIT WONDER';-inkscape-font-specification:'8BIT WONDER';stroke-width:0.28037381"
               id="path4901" />
            <path
               d="m 87.242988,119.67117 h -3.738317 v -7.47663 h -1.869159 v 7.47663 h -3.738318 v -9.34579 h 8.411215 v 0.93458 h 0.934579 z"
               style="font-style:normal;font-variant:normal;font-weight:normal;font-stretch:normal;font-family:'8BIT WONDER';-inkscape-font-specification:'8BIT WONDER';stroke-width:0.28037381"
               id="path4903" />
            <path
               d="m 98.457947,112.19454 h -2.803739 v 7.47663 H 91.91589 v -7.47663 h -2.803738 v -1.86916 h 9.345795 z"
               style="font-style:normal;font-variant:normal;font-weight:normal;font-stretch:normal;font-family:'8BIT WONDER';-inkscape-font-specification:'8BIT WONDER';stroke-width:0.28037381"
               id="path4905" />
            <path
               d="m 109.6729,119.67117 h -3.73832 v -3.73831 h -1.86916 v 3.73831 h -3.73832 v -9.34579 h 8.41122 v 0.93458 h 0.93458 v 2.80374 h -0.93458 v 1.86916 h 0.93458 z m -3.73832,-5.60747 v -1.86916 h -1.86916 v 1.86916 z"
               style="font-style:normal;font-variant:normal;font-weight:normal;font-stretch:normal;font-family:'8BIT WONDER';-inkscape-font-specification:'8BIT WONDER';stroke-width:0.28037381"
               id="path4907" />
            <path
               d="m 120.88786,118.73659 h -0.93458 v 0.93458 h -7.47664 v -0.93458 h -0.93458 v -7.47663 h 0.93458 v -0.93458 h 7.47664 v 0.93458 h 0.93458 z m -3.73832,-0.93458 v -5.60747 h -1.86916 v 5.60747 z"
               style="font-style:normal;font-variant:normal;font-weight:normal;font-stretch:normal;font-family:'8BIT WONDER';-inkscape-font-specification:'8BIT WONDER';stroke-width:0.28037381"
               id="path4909" />
            <path
               d="m 132.10281,119.67117 h -9.3458 v -9.34579 h 3.73832 v 7.47663 h 5.60748 z"
               style="font-style:normal;font-variant:normal;font-weight:normal;font-stretch:normal;font-family:'8BIT WONDER';-inkscape-font-specification:'8BIT WONDER';stroke-width:0.28037381"
               id="path4911" />
            <path
               d="m 148.92523,118.73659 h -0.93458 v 0.93458 h -7.47663 v -0.93458 h -0.93458 v -7.47663 h 0.93458 v -0.93458 h 7.47663 v 0.93458 h 0.93458 z m -3.73832,-0.93458 v -5.60747 h -1.86915 v 5.60747 z"
               style="font-style:normal;font-variant:normal;font-weight:normal;font-stretch:normal;font-family:'8BIT WONDER';-inkscape-font-specification:'8BIT WONDER';stroke-width:0.28037381"
               id="path4913" />
            <path
               d="m 160.14018,118.73659 h -0.93458 v 0.93458 h -8.41121 v -9.34579 h 8.41121 v 0.93458 h 0.93458 v 2.80374 h -0.93458 v 1.86916 h 0.93458 z m -3.73832,-4.67289 v -1.86916 h -1.86915 v 1.86916 z m 0,3.73831 v -1.86915 h -1.86915 v 1.86915 z"
               style="font-style:normal;font-variant:normal;font-weight:normal;font-stretch:normal;font-family:'8BIT WONDER';-inkscape-font-specification:'8BIT WONDER';stroke-width:0.28037381"
               id="path4915" />
            <path
               d="m 171.35515,119.67117 h -3.73832 v -3.73831 h -1.86916 v 3.73831 h -3.73832 v -9.34579 h 8.41122 v 0.93458 h 0.93458 v 2.80374 h -0.93458 v 1.86916 h 0.93458 z m -3.73832,-5.60747 v -1.86916 h -1.86916 v 1.86916 z"
               style="font-style:normal;font-variant:normal;font-weight:normal;font-stretch:normal;font-family:'8BIT WONDER';-inkscape-font-specification:'8BIT WONDER';stroke-width:0.28037381"
               id="path4917" />
            <path
               d="m 182.5701,119.67117 h -8.41122 v -0.93458 h -0.93458 v -7.47663 h 0.93458 v -0.93458 h 8.41122 v 1.86916 h -5.60748 v 1.86916 h 2.80374 v 1.86916 h -2.80374 v 1.86915 h 5.60748 z"
               style="font-style:normal;font-variant:normal;font-weight:normal;font-stretch:normal;font-family:'8BIT WONDER';-inkscape-font-specification:'8BIT WONDER';stroke-width:0.28037381"
               id="path4919" />
            <path
               d="m 193.78505,119.67117 h -3.73832 v -3.73831 h -1.86916 v 3.73831 h -3.73832 v -9.34579 h 8.41122 v 0.93458 h 0.93458 v 2.80374 h -0.93458 v 1.86916 h 0.93458 z m -3.73832,-5.60747 v -1.86916 h -1.86916 v 1.86916 z"
               style="font-style:normal;font-variant:normal;font-weight:normal;font-stretch:normal;font-family:'8BIT WONDER';-inkscape-font-specification:'8BIT WONDER';stroke-width:0.28037381"
               id="path4921" />
            <path
               d="m 205,118.73659 h -0.93458 v 0.93458 h -7.47664 v -0.93458 h -0.93457 v -7.47663 h 0.93457 v -0.93458 h 7.47664 v 0.93458 H 205 Z m -3.73832,-0.93458 v -5.60747 h -1.86916 v 5.60747 z"
               style="font-style:normal;font-variant:normal;font-weight:normal;font-stretch:normal;font-family:'8BIT WONDER';-inkscape-font-specification:'8BIT WONDER';stroke-width:0.28037381"
               id="path4923" />
          </g>
          <g
             aria-label="bajo control obrero"
             style="font-style:normal;font-variant:normal;font-weight:normal;font-stretch:normal;font-size:11.21495342px;line-height:1.25;font-family:'League Gothic';-inkscape-font-specification:'League Gothic';letter-spacing:0px;word-spacing:0px;fill:#ff0000;fill-opacity:1;stroke:none;stroke-width:0.28037381"
             id="text4562">
            <path
               d="m 12.476633,118.73659 h -0.93458 v 0.93458 H 3.1308384 v -9.34579 h 8.4112146 v 0.93458 h 0.93458 v 2.80374 h -0.93458 v 1.86916 h 0.93458 z M 8.7383151,114.0637 v -1.86916 H 6.8691562 v 1.86916 z m 0,3.73831 v -1.86915 H 6.8691562 v 1.86915 z"
               style="font-style:normal;font-variant:normal;font-weight:normal;font-stretch:normal;font-family:'8BIT WONDER';-inkscape-font-specification:'8BIT WONDER';text-align:end;text-anchor:end;fill:#ff0000;stroke-width:0.28037381"
               id="path4926" />
            <path
               d="m 23.691586,119.67117 h -3.738317 v -3.73831 H 18.08411 v 3.73831 h -3.738318 v -8.41121 h 0.934579 v -0.93458 h 7.476636 v 0.93458 h 0.934579 z m -3.738317,-5.60747 v -1.86916 H 18.08411 v 1.86916 z"
               style="font-style:normal;font-variant:normal;font-weight:normal;font-stretch:normal;font-family:'8BIT WONDER';-inkscape-font-specification:'8BIT WONDER';text-align:end;text-anchor:end;fill:#ff0000;stroke-width:0.28037381"
               id="path4928" />
            <path
               d="m 34.90654,118.73659 h -0.93458 v 0.93458 h -8.411215 v -1.86916 h 5.607477 v -7.47663 h 3.738318 z"
               style="font-style:normal;font-variant:normal;font-weight:normal;font-stretch:normal;font-family:'8BIT WONDER';-inkscape-font-specification:'8BIT WONDER';text-align:end;text-anchor:end;fill:#ff0000;stroke-width:0.28037381"
               id="path4930" />
            <path
               d="m 46.121492,118.73659 h -0.934579 v 0.93458 h -7.476636 v -0.93458 h -0.934579 v -7.47663 h 0.934579 v -0.93458 h 7.476636 v 0.93458 h 0.934579 z m -3.738318,-0.93458 v -5.60747 h -1.869158 v 5.60747 z"
               style="font-style:normal;font-variant:normal;font-weight:normal;font-stretch:normal;font-family:'8BIT WONDER';-inkscape-font-specification:'8BIT WONDER';text-align:end;text-anchor:end;fill:#ff0000;stroke-width:0.28037381"
               id="path4932" />
            <path
               d="m 62.943922,119.67117 h -8.411215 v -0.93458 h -0.93458 v -7.47663 h 0.93458 v -0.93458 h 8.411215 v 1.86916 h -5.607477 v 5.60747 h 5.607477 z"
               style="font-style:normal;font-variant:normal;font-weight:normal;font-stretch:normal;font-family:'8BIT WONDER';-inkscape-font-specification:'8BIT WONDER';text-align:end;text-anchor:end;fill:#ff0000;stroke-width:0.28037381"
               id="path4934" />
            <path
               d="m 74.158876,118.73659 h -0.934579 v 0.93458 h -7.476636 v -0.93458 h -0.934579 v -7.47663 h 0.934579 v -0.93458 h 7.476636 v 0.93458 h 0.934579 z m -3.738318,-0.93458 v -5.60747 H 68.5514 v 5.60747 z"
               style="font-style:normal;font-variant:normal;font-weight:normal;font-stretch:normal;font-family:'8BIT WONDER';-inkscape-font-specification:'8BIT WONDER';text-align:end;text-anchor:end;fill:#ff0000;stroke-width:0.28037381"
               id="path4936" />
            <path
               d="m 85.373827,119.67117 h -3.738318 v -7.47663 H 79.76635 v 7.47663 h -3.738318 v -9.34579 h 8.411215 v 0.93458 h 0.93458 z"
               style="font-style:normal;font-variant:normal;font-weight:normal;font-stretch:normal;font-family:'8BIT WONDER';-inkscape-font-specification:'8BIT WONDER';text-align:end;text-anchor:end;fill:#ff0000;stroke-width:0.28037381"
               id="path4938" />
            <path
               d="m 96.588785,112.19454 h -2.803738 v 7.47663 h -3.738318 v -7.47663 H 87.24299 v -1.86916 h 9.345795 z"
               style="font-style:normal;font-variant:normal;font-weight:normal;font-stretch:normal;font-family:'8BIT WONDER';-inkscape-font-specification:'8BIT WONDER';text-align:end;text-anchor:end;fill:#ff0000;stroke-width:0.28037381"
               id="path4940" />
            <path
               d="m 107.80374,119.67117 h -3.73832 v -3.73831 h -1.86916 v 3.73831 h -3.738319 v -9.34579 h 8.411219 v 0.93458 h 0.93458 v 2.80374 h -0.93458 v 1.86916 h 0.93458 z m -3.73832,-5.60747 v -1.86916 h -1.86916 v 1.86916 z"
               style="font-style:normal;font-variant:normal;font-weight:normal;font-stretch:normal;font-family:'8BIT WONDER';-inkscape-font-specification:'8BIT WONDER';text-align:end;text-anchor:end;fill:#ff0000;stroke-width:0.28037381"
               id="path4942" />
            <path
               d="m 119.01869,118.73659 h -0.93458 v 0.93458 h -7.47663 v -0.93458 h -0.93458 v -7.47663 h 0.93458 v -0.93458 h 7.47663 v 0.93458 h 0.93458 z m -3.73831,-0.93458 v -5.60747 h -1.86916 v 5.60747 z"
               style="font-style:normal;font-variant:normal;font-weight:normal;font-stretch:normal;font-family:'8BIT WONDER';-inkscape-font-specification:'8BIT WONDER';text-align:end;text-anchor:end;fill:#ff0000;stroke-width:0.28037381"
               id="path4944" />
            <path
               d="m 130.23364,119.67117 h -9.34579 v -9.34579 h 3.73832 v 7.47663 h 5.60747 z"
               style="font-style:normal;font-variant:normal;font-weight:normal;font-stretch:normal;font-family:'8BIT WONDER';-inkscape-font-specification:'8BIT WONDER';text-align:end;text-anchor:end;fill:#ff0000;stroke-width:0.28037381"
               id="path4946" />
            <path
               d="m 147.05607,118.73659 h -0.93458 v 0.93458 h -7.47663 v -0.93458 h -0.93458 v -7.47663 h 0.93458 v -0.93458 h 7.47663 v 0.93458 h 0.93458 z m -3.73832,-0.93458 v -5.60747 h -1.86916 v 5.60747 z"
               style="font-style:normal;font-variant:normal;font-weight:normal;font-stretch:normal;font-family:'8BIT WONDER';-inkscape-font-specification:'8BIT WONDER';text-align:end;text-anchor:end;fill:#ff0000;stroke-width:0.28037381"
               id="path4948" />
            <path
               d="m 158.27102,118.73659 h -0.93458 v 0.93458 h -8.41121 v -9.34579 h 8.41121 v 0.93458 h 0.93458 v 2.80374 h -0.93458 v 1.86916 h 0.93458 z m -3.73832,-4.67289 v -1.86916 h -1.86916 v 1.86916 z m 0,3.73831 v -1.86915 h -1.86916 v 1.86915 z"
               style="font-style:normal;font-variant:normal;font-weight:normal;font-stretch:normal;font-family:'8BIT WONDER';-inkscape-font-specification:'8BIT WONDER';text-align:end;text-anchor:end;fill:#ff0000;stroke-width:0.28037381"
               id="path4950" />
            <path
               d="m 169.48599,119.67117 h -3.73832 v -3.73831 h -1.86916 v 3.73831 h -3.73832 v -9.34579 h 8.41122 v 0.93458 h 0.93458 v 2.80374 h -0.93458 v 1.86916 h 0.93458 z m -3.73832,-5.60747 v -1.86916 h -1.86916 v 1.86916 z"
               style="font-style:normal;font-variant:normal;font-weight:normal;font-stretch:normal;font-family:'8BIT WONDER';-inkscape-font-specification:'8BIT WONDER';text-align:end;text-anchor:end;fill:#ff0000;stroke-width:0.28037381"
               id="path4952" />
            <path
               d="m 180.70094,119.67117 h -8.41122 v -0.93458 h -0.93458 v -7.47663 h 0.93458 v -0.93458 h 8.41122 v 1.86916 h -5.60748 v 1.86916 h 2.80374 v 1.86916 h -2.80374 v 1.86915 h 5.60748 z"
               style="font-style:normal;font-variant:normal;font-weight:normal;font-stretch:normal;font-family:'8BIT WONDER';-inkscape-font-specification:'8BIT WONDER';text-align:end;text-anchor:end;fill:#ff0000;stroke-width:0.28037381"
               id="path4954" />
            <path
               d="m 191.91589,119.67117 h -3.73832 v -3.73831 h -1.86916 v 3.73831 h -3.73832 v -9.34579 h 8.41122 v 0.93458 h 0.93458 v 2.80374 h -0.93458 v 1.86916 h 0.93458 z m -3.73832,-5.60747 v -1.86916 h -1.86916 v 1.86916 z"
               style="font-style:normal;font-variant:normal;font-weight:normal;font-stretch:normal;font-family:'8BIT WONDER';-inkscape-font-specification:'8BIT WONDER';text-align:end;text-anchor:end;fill:#ff0000;stroke-width:0.28037381"
               id="path4956" />
            <path
               d="m 203.13084,118.73659 h -0.93458 v 0.93458 h -7.47664 v -0.93458 h -0.93458 v -7.47663 h 0.93458 v -0.93458 h 7.47664 v 0.93458 h 0.93458 z m -3.73832,-0.93458 v -5.60747 h -1.86916 v 5.60747 z"
               style="font-style:normal;font-variant:normal;font-weight:normal;font-stretch:normal;font-family:'8BIT WONDER';-inkscape-font-specification:'8BIT WONDER';text-align:end;text-anchor:end;fill:#ff0000;stroke-width:0.28037381"
               id="path4958" />
          </g>
        </g>
      </g>
    </g>
  </g>
</svg>
