<?xml version="1.0" encoding="UTF-8" standalone="no"?>
<!-- Created with Inkscape (http://www.inkscape.org/) -->

<svg
   xmlns:dc="http://purl.org/dc/elements/1.1/"
   xmlns:cc="http://creativecommons.org/ns#"
   xmlns:rdf="http://www.w3.org/1999/02/22-rdf-syntax-ns#"
   xmlns:svg="http://www.w3.org/2000/svg"
   xmlns="http://www.w3.org/2000/svg"
   xmlns:sodipodi="http://sodipodi.sourceforge.net/DTD/sodipodi-0.dtd"
   xmlns:inkscape="http://www.inkscape.org/namespaces/inkscape"
   width="109.54401mm"
   height="153.25443mm"
   viewBox="0 0 109.54401 153.25443"
   version="1.1"
   id="svg865"
   inkscape:export-filename="/home/fauno/bitmap.png"
   inkscape:export-xdpi="132"
   inkscape:export-ydpi="132"
   inkscape:version="0.92.2 2405546, 2018-03-11"
   sodipodi:docname="copiar_no_es_robar_cabeza.svg">
  <defs
     id="defs859" />
  <sodipodi:namedview
     id="base"
     pagecolor="#ffffff"
     bordercolor="#666666"
     borderopacity="1.0"
     inkscape:pageopacity="0.0"
     inkscape:pageshadow="2"
     inkscape:zoom="0.35"
     inkscape:cx="-206.55226"
     inkscape:cy="79.524308"
     inkscape:document-units="mm"
     inkscape:current-layer="layer1"
     showgrid="false"
     showguides="false"
     fit-margin-top="0"
     fit-margin-left="0"
     fit-margin-right="0"
     fit-margin-bottom="0"
     inkscape:window-width="1280"
     inkscape:window-height="778"
     inkscape:window-x="0"
     inkscape:window-y="22"
     inkscape:window-maximized="0" />
  <metadata
     id="metadata862">
    <rdf:RDF>
      <cc:Work
         rdf:about="">
        <dc:format>image/svg+xml</dc:format>
        <dc:type
           rdf:resource="http://purl.org/dc/dcmitype/StillImage" />
        <dc:title></dc:title>
      </cc:Work>
    </rdf:RDF>
  </metadata>
  <g
     inkscape:label="Capa 1"
     inkscape:groupmode="layer"
     id="layer1"
     transform="translate(129.95473,-68.838325)">
    <circle
       style="fill:none;fill-opacity:1;stroke:none;stroke-width:1.33668339;stroke-miterlimit:4;stroke-dasharray:1.33668341, 1.33668341;stroke-dashoffset:0;stroke-opacity:1"
       id="path1539"
       cx="177.75484"
       cy="25.545658"
       r="50.270832"
       transform="rotate(105)" />
    <circle
       transform="rotate(105)"
       r="49.136902"
       cy="25.453074"
       cx="177.80829"
       id="circle1548"
       style="fill:#ffff00;fill-opacity:1;stroke:none;stroke-width:1.30653262;stroke-miterlimit:4;stroke-dasharray:1.30653266, 1.30653266;stroke-dashoffset:0;stroke-opacity:1" />
    <g
       id="g1537">
      <path
         inkscape:connector-curvature="0"
         id="path1477"
         d="m -81.138891,206.0382 c -4.41033,-0.40669 -4.9611,-0.54048 -7.4483,-1.80932 -3.00635,-1.53369 -8.54633,-5.81409 -10.11889,-7.81825 -1.28232,-1.63423 -1.726199,-2.98273 -2.344689,-7.12298 -0.41648,-2.78793 -0.64181,-3.42709 -1.54135,-4.37211 -5.17497,-5.43658 -8.49456,-11.8013 -9.77704,-18.74571 -1.35149,-3.49935 -1.18908,-7.39624 0.0391,-12.45929 0.61254,-2.79772 2.8009,-7.50591 4.64184,-9.98678 3.11963,-4.20405 7.00542,-7.11466 13.121089,-9.82826 2.13527,-0.94742 3.94974,-1.99526 4.32024,-2.49486 0.46723,-0.63003 0.87901,-2.70879 1.53331,-7.74052 0.91157,-7.01006 1.19004,-8.63656 3.01993,-17.63889 1.32718,-6.529202 2.48459,-11.173843 3.99989,-16.051392 0.66306,-2.134301 1.63342,-5.309301 2.15635,-7.055551 0.79786,-2.66433 3.08081,-8.158678 3.97245,-9.56043 1.43345,-2.253531 2.30218,-3.38223 2.72941,-3.546168 0.28164,-0.108083 0.43452,-0.321982 0.33974,-0.475351 -0.26554,-0.429651 0.70731,-0.679669 1.26671,-0.32554 0.42022,0.26602 0.41527,0.319889 -0.032,0.34799 -0.29105,0.0183 -0.1086,0.18737 0.40544,0.37574 0.53077,0.19449 1.13067,0.815801 1.38834,1.437878 0.68938,1.664301 0.60923,12.103852 -0.14027,18.27226 -0.34185,2.813412 -0.7033,5.829662 -0.80324,6.702782 -0.46149,4.032152 -2.68151,16.905042 -3.13322,18.168052 -0.58233,1.6283 -3.36149,13.00227 -3.36149,13.75725 0,0.93012 1.45957,1.30211 5.79241,1.47631 3.33345,0.13401 4.38282,0.0669 4.66314,-0.29838 0.19896,-0.25921 1.44246,-3.6463 2.76334,-7.52684 3.25336,-9.55786 8.60271,-21.829402 12.53318,-28.751392 0.71612,-1.261181 1.60456,-3.06084 1.97429,-3.99924 0.40975,-1.03995 1.18883,-2.11912 1.99516,-2.763671 0.72761,-0.58162 1.32292,-1.251191 1.32292,-1.48794 0,-0.427091 1.08487,-2.173039 3.1559,-5.079 0.59259,-0.83149 1.07743,-1.633789 1.07743,-1.782879 0,-0.1491 0.5235,-0.77847 1.16333,-1.398622 1.26063,-1.221848 2.69577,-1.474369 3.41998,-0.601749 0.54908,0.661601 0.58824,5.148061 0.0616,7.05894 -0.21389,0.77611 -0.45958,2.365549 -0.54597,3.5321 -0.0864,1.16654 -0.3148,2.51591 -0.50757,2.99861 -0.19278,0.48269 -0.68287,1.700911 -1.0891,2.707161 -0.40623,1.00625 -0.96928,2.91125 -1.25122,4.233339 -0.65693,3.08044 -3.1225,10.067953 -4.70703,13.339903 -0.37586,0.77611 -1.11251,2.71501 -1.637,4.30868 -0.5245,1.59367 -1.30737,3.4193 -1.73971,4.05695 -0.71254,1.05088 -1.69249,2.82881 -5.67037,10.28772 -1.82631,3.42449 -1.68458,3.98278 1.39056,5.47749 12.59929,6.12401 19.72904,12.7946 24.60786,23.02305 2.24129,4.69888 2.90629,7.66763 2.87134,12.81831 -0.0354,5.21999 -0.68666,8.10488 -2.78722,12.34723 -1.79569,3.62663 -3.31503,5.60308 -6.23366,8.10906 -2.07,1.77734 -7.59932,4.96471 -10.52082,6.06471 -0.87312,0.32875 -2.09713,1.03407 -2.72,1.56736 -0.62289,0.5333 -1.89289,1.41207 -2.82223,1.95283 -0.92934,0.54074 -2.20699,1.33076 -2.83923,1.75559 -1.5676,1.05334 -5.21875,2.24628 -6.87503,2.24628 -0.74864,0 -2.50376,0.23815 -3.90025,0.52923 -7.64344,1.59315 -11.546,2.31979 -12.08532,2.25024 -0.18235,-0.0235 -2.47467,-0.24038 -5.09405,-0.48193 z"
         style="fill:#ffffff;stroke-width:0.35277778"
         sodipodi:nodetypes="cccccccscccsssscccccccccsccscccssscscccsccccccccsccccsscccc" />
      <path
         inkscape:connector-curvature="0"
         id="path1504"
         d="m -81.138881,206.0382 c -4.41033,-0.40669 -4.9611,-0.54048 -7.4483,-1.80932 -3.00635,-1.53369 -8.54633,-5.81409 -10.11889,-7.81825 -1.28232,-1.63424 -1.726199,-2.98273 -2.344689,-7.12298 -0.41648,-2.78794 -0.64181,-3.42709 -1.54135,-4.37211 -5.17497,-5.43658 -8.49456,-11.8013 -9.77704,-18.74571 -1.35153,-3.49937 -1.18902,-7.39624 0.0391,-12.4593 0.61254,-2.79772 2.8009,-7.5059 4.64184,-9.98677 3.11963,-4.20405 7.00542,-7.11466 13.121089,-9.82826 2.13527,-0.94743 3.94974,-1.99526 4.32024,-2.49486 0.46723,-0.63004 0.87901,-2.7088 1.53331,-7.74053 0.91157,-7.01006 1.19004,-8.63656 3.01993,-17.63889 1.32718,-6.529199 2.48459,-11.173839 3.99989,-16.051389 0.66306,-2.1343 1.63342,-5.3093 2.15635,-7.05555 0.79786,-2.66433 3.08081,-8.15868 3.97245,-9.56043 1.43345,-2.25353 2.30218,-3.38223 2.72941,-3.54617 1.183489,-1.28741 2.862156,0.196698 3.36823,1.36072 0.68938,1.6643 0.60923,12.10385 -0.14027,18.27226 -0.34185,2.81341 -0.7033,5.82966 -0.80324,6.70278 -0.46149,4.032149 -2.68151,16.905039 -3.13322,18.168049 -0.58233,1.6283 -3.36149,13.00227 -3.36149,13.75726 0,0.93011 1.45957,1.30211 5.79241,1.4763 3.33345,0.13402 4.38282,0.0669 4.66314,-0.29837 0.19896,-0.25921 1.44246,-3.6463 2.76334,-7.52685 3.25336,-9.55786 8.60271,-21.829399 12.53318,-28.751389 0.71612,-1.26118 1.60456,-3.06084 1.97429,-3.99924 1.384166,-3.729961 8.71474,-12.51211 7.55141,-11.11349 0,-0.1491 0.5235,-0.77847 1.16333,-1.39862 1.26063,-1.22185 2.69577,-1.47437 3.41998,-0.60175 1.780109,7.03287 -2.020083,14.74163 -3.33226,20.53015 -0.65693,3.08044 -3.1225,10.067949 -4.70703,13.339899 -0.37586,0.77611 -1.11251,2.71501 -1.637,4.30868 -0.5245,1.59367 -1.30737,3.4193 -1.73971,4.05695 -0.71254,1.05088 -1.69249,2.82881 -5.67037,10.28772 -1.82631,3.4245 -1.68458,3.98279 1.39056,5.4775 12.59929,6.12401 19.72905,12.7946 24.60786,23.02305 2.24129,4.69888 2.9063,7.66763 2.87134,12.81831 -0.0354,5.21998 -0.68666,8.10488 -2.78721,12.34723 -1.79569,3.62663 -3.31504,5.60308 -6.23367,8.10906 -2.07,1.77734 -7.59932,4.96471 -10.52082,6.06471 -0.87312,0.32875 -2.09713,1.03407 -2.72,1.56736 -0.62289,0.5333 -1.89289,1.41207 -2.82223,1.95282 -0.92934,0.54075 -2.20699,1.33077 -2.83923,1.7556 -1.5676,1.05334 -5.21875,2.24628 -6.87503,2.24628 -5.628214,1.77504 -11.348273,3.05064 -15.98557,2.77947 -0.18235,-0.0235 -2.47467,-0.24038 -5.09405,-0.48193 z m 14.81667,-2.7805 c 10.31269,-2.08789 16.01879,-4.87748 18.08541,-8.84159 0.41151,-0.78934 0.93443,-2.3083 1.16204,-3.37545 l 0.41384,-1.94028 0.6146,1.49931 c 0.96066,2.34347 1.90726,2.07152 7.29976,-2.09715 5.68235,-4.39274 9.81879,-12.91855 9.81879,-20.23798 0,-5.43241 -3.16606,-13.72033 -6.9663,-18.23593 -5.2972,-6.29434 -10.672,-10.60927 -15.65615,-12.56885 -6.3616,-2.50114 -10.37255,-2.8592 -13.65247,-1.21875 -1.70979,0.85514 -2.12999,1.27017 -2.88341,2.84793 -0.48507,1.0158 -0.97459,1.84923 -1.08783,1.85208 -0.11324,0.003 -0.87917,-0.6164 -1.70207,-1.3761 -3.00716,-2.77619 -8.70813,-4.96872 -12.91957,-4.96872 -2.26401,0 -6.89738,1.23872 -9.47641,2.5335 -7.475109,3.75281 -10.071389,6.94834 -11.528849,14.18989 -0.72887,3.62145 -0.7335,3.81582 -0.15392,6.4697 0.32864,1.50484 0.97409,3.38963 1.43433,4.18842 1.0467,1.81665 4.101809,4.63603 6.270069,5.78629 0.90617,0.48072 1.64759,0.98723 1.64759,1.12556 0,0.13834 -0.81634,0.49395 -1.81408,0.79024 -3.161859,0.93898 -4.851589,2.16174 -5.798939,4.19639 -0.46571,1.00024 -0.84134,2.13612 -0.83472,2.52417 0.0355,2.0811 2.66675,6.1544 3.98388,6.16725 0.358279,0.004 1.372819,-0.62864 2.254529,-1.40475 0.88171,-0.77611 1.74179,-1.41111 1.91129,-1.41111 0.16951,0 -0.16869,0.94469 -0.75154,2.09932 -1.52359,3.01822 -2.60452,7.19967 -2.32042,8.97633 0.76196,4.76502 8.83481,11.08202 16.24638,12.71277 3.07598,0.67681 12.46449,0.51513 16.40417,-0.28249 z m -13.86449,-4.79305 c -1.51359,-0.15746 -3.49796,-0.56495 -4.40972,-0.90552 -2.39597,-0.89499 -6.03808,-3.39092 -7.98439,-5.47168 l -1.68546,-1.80189 0.14534,-2.53287 c 0.25787,-4.49398 2.11514,-7.41749 5.01076,-7.88738 1.10831,-0.17986 1.28045,-0.0806 2.09313,1.20675 0.68716,1.08853 1.59361,1.76845 4.04679,3.03547 6.08754,3.14409 11.24506,3.7063 20.15993,2.19758 6.5757,-1.11285 7.60025,-1.98109 3.8041,-3.22376 -3.17799,-1.04032 -5.02688,-2.16003 -6.83699,-4.14058 -1.97683,-2.16297 -2.59917,-3.80172 -2.58792,-6.81465 0.014,-3.74588 1.75518,-6.11409 5.98948,-8.14629 1.6487,-0.79128 2.54425,-0.95548 5.95937,-1.09262 3.52377,-0.14152 4.34774,-0.0583 6.68563,0.67486 2.17388,0.68176 3.05477,1.19543 4.76799,2.78034 1.1558,1.06925 2.39035,2.57908 2.74343,3.35519 0.81258,1.78615 0.87733,5.78004 0.11959,7.37686 -0.78043,1.64464 -3.58621,4.25316 -5.71778,5.3158 -2.92441,1.45789 -4.57565,4.09227 -4.98883,7.95917 -0.29569,2.76738 -0.81086,3.52685 -3.2194,4.74613 -5.18331,2.62395 -16.30689,4.1793 -24.09505,3.36909 z m 7.29369,-1.40988 c 1.13949,-0.43324 1.71838,-1.54236 1.69485,-3.24727 -0.0103,-0.74811 0.20844,-1.79576 0.48614,-2.3281 0.2777,-0.53235 0.50589,-1.48777 0.50708,-2.12317 0.003,-1.42291 -0.51883,-1.65585 -4.4111,-1.97026 -1.55417,-0.12554 -4.09417,-0.62221 -5.64444,-1.10371 -3.84705,-1.19486 -4.25989,-1.16348 -4.76336,0.36204 -0.22655,0.68645 -0.44838,1.83738 -0.49295,2.55764 -0.0446,0.72026 -0.26841,1.75645 -0.4974,2.30266 -0.84826,2.02331 -0.25602,3.66559 1.59807,4.43149 2.92748,1.20929 9.58486,1.8556 11.52311,1.11868 z m 10.40698,-0.96212 c 2.20691,-0.48054 4.37384,-1.03832 4.8154,-1.23951 0.88572,-0.40356 2.14605,-2.82756 1.77898,-3.4215 -0.12777,-0.20672 0.10761,-0.83562 0.52307,-1.39755 0.7148,-0.96683 1.08728,-3.29789 0.60416,-3.78101 -0.38436,-0.38436 -1.72112,-0.27393 -6.08973,0.50309 -2.32834,0.41412 -4.675,0.7538 -5.21481,0.75483 -0.5398,0.001 -1.51614,0.22529 -2.16964,0.49833 -1.35465,0.56601 -1.86826,1.95699 -1.28706,3.48565 0.26232,0.68998 0.22116,1.1833 -0.15965,1.91337 -0.80458,1.5425 -0.67452,3.23919 0.2763,3.60426 0.90576,0.34777 1.40643,0.28123 6.92298,-0.91996 z m 17.17773,-21.08994 c 2.33441,-3.56275 -0.92807,-8.27459 -6.15821,-8.89402 -1.76724,-0.2093 -1.80292,-0.1951 -1.80292,0.71755 0,0.5121 0.1364,0.93109 0.30311,0.93109 0.16671,0 1.02719,0.63735 1.91217,1.41635 1.31721,1.15946 1.68071,1.75049 2.00415,3.2586 0.2173,1.01324 0.63048,2.20151 0.91818,2.64059 0.70541,1.07659 2.09477,1.04207 2.82352,-0.0702 z m -16.63792,-13.93901 c -1.20847,-0.4886 -3.25095,-3.15402 -3.88907,-5.07523 -0.36951,-1.11251 -0.60806,-3.02238 -0.62922,-5.03777 -0.0292,-2.7786 0.0726,-3.38966 0.70696,-4.24397 0.59363,-0.79946 1.06086,-1.01914 2.34849,-1.1042 1.38797,-0.0917 1.78508,0.0498 2.90861,1.03627 2.00772,1.7628 3.06593,4.44747 3.26414,8.28108 0.13047,2.52341 0.0402,3.4793 -0.41992,4.44903 -0.83679,1.76341 -2.49754,2.4195 -4.28999,1.69479 z m 0.79412,-10.9227 c 0.63084,-1.26533 -0.1393,-2.98399 -1.40394,-3.13305 -1.59042,-0.18746 -1.90083,2.06161 -0.51501,3.73142 0.5537,0.66716 1.42319,0.39604 1.91895,-0.59837 z m -15.67511,10.11498 c -1.36264,-1.45045 -1.84222,-3.2026 -1.84222,-6.73047 0,-3.49796 0.4858,-5.49271 1.78049,-7.31093 0.64098,-0.90018 0.95892,-1.03503 2.44032,-1.03503 1.49697,0 1.8315,0.14598 2.76131,1.20498 1.97401,2.24828 2.37361,8.14866 0.79374,11.72023 -1.11462,2.51977 -1.63005,2.94979 -3.53571,2.94979 -1.25556,0 -1.82627,-0.19006 -2.39793,-0.79857 z m 3.95861,-10.21604 c 1.09587,-1.56457 0.5995,-3.44928 -0.90842,-3.44928 -1.60891,0 -2.15833,2.25139 -0.92548,3.79236 0.52992,0.66237 1.22009,0.53325 1.8339,-0.34308 z m 48.28993,19.30489 c 0.001,-1.3582 0.0653,-1.87059 0.14169,-1.13866 0.0764,0.73193 0.0751,1.84318 -0.003,2.46944 -0.0779,0.62627 -0.14041,0.0274 -0.13885,-1.33078 z"
         style="fill:#020202;stroke-width:0.35277778"
         sodipodi:nodetypes="cccccccscccsssscccccsccscccccccccscscccccssccccsccccsssscsccsscsscsccccsscscsscscsccsscscccccccsccscccccssccccscccsccccsssccsscccccsccccsscscscccscsscsccsccccccc" />
    </g>
    <g
       aria-label="COPIAR NO ES ROBAR"
       style="font-style:normal;font-variant:normal;font-weight:normal;font-stretch:normal;font-size:10.58333302px;line-height:1.25;font-family:FontAwesome;-inkscape-font-specification:FontAwesome;letter-spacing:0px;word-spacing:0px;fill:#000000;fill-opacity:1;stroke:none;stroke-width:0.26458332"
       id="text1543">
      <path
         d="m -89.320022,213.72729 c 1.885593,0.66749 2.247476,2.27754 1.855459,3.38495 -0.388485,1.09744 -1.682732,2.12123 -3.568324,1.45374 -0.957762,-0.33904 -1.436107,-1.08094 -1.436107,-1.08094 l -1.363204,1.31373 c 0,0 0.649447,1.08314 2.435273,1.71532 2.334543,0.82641 5.137659,-0.33687 5.974668,-2.70134 0.833477,-2.3545 -0.630513,-5.00585 -2.95508,-5.82873 -1.785826,-0.63217 -2.972088,-0.19886 -2.972088,-0.19886 l 0.233065,1.87881 c 0,0 0.838577,-0.27572 1.796338,0.0633 z"
         style="font-style:normal;font-variant:normal;font-weight:normal;font-stretch:normal;font-family:'League Spartan';-inkscape-font-specification:'League Spartan';stroke-width:0.26458332"
         id="path1088" />
      <path
         d="m -93.66031,214.86636 c 1.249866,-2.22336 0.632886,-4.84055 -1.618146,-6.10598 -2.186454,-1.22912 -4.798414,-0.42708 -6.048284,1.79627 -1.24986,2.22336 -0.49854,4.90394 1.614111,6.09157 2.094198,1.17726 4.802452,0.44149 6.052319,-1.78186 z m -1.872785,-1.05279 c -0.637899,1.13474 -1.903134,1.91682 -3.240838,1.16483 -1.346927,-0.75718 -1.317917,-2.23421 -0.680018,-3.36895 0.637899,-1.13475 1.847781,-1.94795 3.231612,-1.17002 1.420734,0.79867 1.327142,2.23939 0.689244,3.37414 z"
         style="font-style:normal;font-variant:normal;font-weight:normal;font-stretch:normal;font-family:'League Spartan';-inkscape-font-specification:'League Spartan';stroke-width:0.26458332"
         id="path1090" />
      <path
         d="m -105.31681,212.95729 5.460749,-6.81286 -1.552499,-1.24438 -2.02545,2.52694 -0.93315,-0.74795 c -1.32954,-1.06568 -2.95757,-1.08208 -4.08282,0.32178 -1.13186,1.41212 -0.68203,2.89845 0.64751,3.96412 z m 0.88994,-4.2916 -1.44958,1.80851 -0.43767,-0.35082 c -0.6111,-0.48981 -1.02368,-1.15959 -0.46106,-1.86152 0.55601,-0.69368 1.29954,-0.43679 1.91064,0.053 z"
         style="font-style:normal;font-variant:normal;font-weight:normal;font-stretch:normal;font-family:'League Spartan';-inkscape-font-specification:'League Spartan';stroke-width:0.26458332"
         id="path1092" />
      <path
         d="m -112.79965,206.42915 1.41635,1.3974 6.1322,-6.21537 -1.41635,-1.3974 z"
         style="font-style:normal;font-variant:normal;font-weight:normal;font-stretch:normal;font-family:'League Spartan';-inkscape-font-specification:'League Spartan';stroke-width:0.26458332"
         id="path1094" />
      <path
         d="m -117.21562,201.377 1.15415,1.43494 9.01242,-2.72605 -1.33987,-1.66586 -1.76534,0.5914 -2.08277,-2.5895 0.95611,-1.59751 -1.33987,-1.66586 z m 4.04238,-3.33283 1.23374,1.53391 -2.58948,0.83322 -0.0133,-0.0165 z"
         style="font-style:normal;font-variant:normal;font-weight:normal;font-stretch:normal;font-family:'League Spartan';-inkscape-font-specification:'League Spartan';stroke-width:0.26458332"
         id="path1096" />
      <path
         d="m -120.30751,197.15616 7.576,-4.3404 -0.98909,-1.7264 -2.99366,1.71511 1.66787,-4.02924 -1.2574,-2.19474 -1.63726,4.40201 c -0.82523,-0.75913 -1.94517,-0.94691 -3.08387,-0.29453 -1.48765,0.85229 -1.63955,2.3542 -0.83461,3.7592 z m 2.37191,-3.65197 -1.98354,1.1364 -0.11574,-0.20203 c -0.37354,-0.65199 -0.77482,-1.45885 0.17104,-2.00075 0.94585,-0.54189 1.43895,0.21236 1.81249,0.86436 z"
         style="font-style:normal;font-variant:normal;font-weight:normal;font-stretch:normal;font-family:'League Spartan';-inkscape-font-specification:'League Spartan';stroke-width:0.26458332"
         id="path1098" />
      <path
         d="m -123.36583,183.23319 -0.006,-0.0202 4.14507,-4.92245 -0.5902,-1.90012 -8.33827,2.58998 0.5902,1.90011 5.17478,-1.60735 0.006,0.0202 -4.14507,4.92245 0.5902,1.90012 8.33827,-2.58998 -0.5902,-1.90011 z"
         style="font-style:normal;font-variant:normal;font-weight:normal;font-stretch:normal;font-family:'League Spartan';-inkscape-font-specification:'League Spartan';stroke-width:0.26458332"
         id="path1100" />
      <path
         d="m -124.4045,176.05122 c 2.53184,-0.30867 4.27607,-2.35514 3.96355,-4.9185 -0.30355,-2.48981 -2.49608,-4.12028 -5.02791,-3.8116 -2.53184,0.30868 -4.24764,2.50094 -3.95433,4.90671 0.29075,2.38476 2.48686,4.13207 5.01869,3.82339 z m -0.26,-2.13262 c -1.29219,0.15754 -2.67146,-0.39929 -2.85718,-1.9226 -0.187,-1.53381 1.02064,-2.38471 2.31282,-2.54226 1.29219,-0.15754 2.66378,0.33626 2.8559,1.9121 0.19725,1.61785 -1.01936,2.39522 -2.31154,2.55276 z"
         style="font-style:normal;font-variant:normal;font-weight:normal;font-stretch:normal;font-family:'League Spartan';-inkscape-font-specification:'League Spartan';stroke-width:0.26458332"
         id="path1102" />
      <path
         d="m -129.22021,157.23105 -0.45391,4.97467 8.69513,0.79338 0.45391,-4.97467 -1.73903,-0.15868 -0.27311,2.99324 -1.74957,-0.15964 0.26158,-2.86676 -1.73903,-0.15868 -0.26157,2.86676 -1.72849,-0.15771 0.27312,-2.99323 z"
         style="font-style:normal;font-variant:normal;font-weight:normal;font-stretch:normal;font-family:'League Spartan';-inkscape-font-specification:'League Spartan';stroke-width:0.26458332"
         id="path1104" />
      <path
         d="m -128.32954,151.78688 c -0.31018,1.37298 0.38431,3.00548 1.97408,3.36464 0.88779,0.20057 1.81794,-0.21859 2.55467,-1.12631 0.73439,-0.89739 1.21835,-1.74286 1.83774,-1.60293 0.79488,0.17958 0.65426,0.99412 0.55864,1.41737 -0.21456,0.94973 -1.43116,1.86838 -1.43116,1.86838 l 1.41184,1.33887 c 0,0 1.39809,-0.95361 1.8482,-2.94598 0.37549,-1.66203 0.013,-3.37142 -2.02065,-3.83087 -1.1149,-0.25187 -2.15566,0.60885 -2.77282,1.46763 -0.63216,0.87709 -1.15473,1.60534 -1.6296,1.49805 -0.46454,-0.10494 -0.68462,-0.52357 -0.53536,-1.18425 0.19824,-0.87747 0.9779,-1.59103 0.9779,-1.59103 l -1.37123,-1.13439 c 0,0 -1.05242,0.91234 -1.40225,2.46082 z"
         style="font-style:normal;font-variant:normal;font-weight:normal;font-stretch:normal;font-family:'League Spartan';-inkscape-font-specification:'League Spartan';stroke-width:0.26458332"
         id="path1106" />
      <path
         d="m -125.73685,143.62279 7.95727,3.59396 0.81899,-1.8133 -3.14433,-1.42016 4.24212,-1.01042 1.04116,-2.3052 -4.5262,1.25373 c 0.13134,-1.11357 -0.37298,-2.13101 -1.56898,-2.6712 -1.56252,-0.70572 -2.8684,0.0515 -3.53492,1.52726 z m 4.34912,-0.21889 -2.08336,-0.94096 0.0958,-0.21219 c 0.3093,-0.68481 0.72781,-1.48287 1.72127,-1.03417 0.99345,0.4487 0.67139,1.29032 0.36209,1.97513 z"
         style="font-style:normal;font-variant:normal;font-weight:normal;font-stretch:normal;font-family:'League Spartan';-inkscape-font-specification:'League Spartan';stroke-width:0.26458332"
         id="path1108" />
      <path
         d="m -118.46032,138.18453 c 2.1151,1.42542 4.77359,1.02192 6.21676,-1.11951 1.40176,-2.08 0.81338,-4.74822 -1.30172,-6.17364 -2.11511,-1.42542 -4.84762,-0.89313 -6.20207,1.11665 -1.34261,1.99223 -0.82807,4.75108 1.28703,6.1765 z m 1.20067,-1.7816 c -1.0795,-0.7275 -1.75679,-2.05178 -0.89918,-3.32436 0.86353,-1.28134 2.33339,-1.13309 3.41288,-0.40559 1.07949,0.72749 1.79228,1.99912 0.90509,3.31558 -0.91085,1.35156 -2.3393,1.14187 -3.41879,0.41437 z"
         style="font-style:normal;font-variant:normal;font-weight:normal;font-stretch:normal;font-family:'League Spartan';-inkscape-font-specification:'League Spartan';stroke-width:0.26458332"
         id="path1110" />
      <path
         d="m -115.62499,126.73934 6.36319,5.97867 2.26827,-2.41416 c 1.23922,-1.31892 1.23164,-2.76371 0.18267,-3.74928 -1.02582,-0.96383 -1.99448,-0.81386 -2.87974,-0.14987 0.22961,-0.80079 -0.0326,-1.52637 -0.61877,-2.07713 -1.21094,-1.13776 -2.43137,-0.65799 -3.46043,0.43725 z m 3.85369,0.8907 -1.3729,-1.28994 0.1087,-0.11569 c 0.59424,-0.63247 1.09868,-0.78295 1.55375,-0.35539 0.53219,0.50004 0.40615,1.02058 -0.18084,1.64533 z m 2.75353,2.58713 -1.50402,-1.41313 0.42756,-0.45507 c 0.64497,-0.68645 1.20832,-0.86872 1.7945,-0.31796 0.50135,0.47104 0.3545,1.04465 -0.29047,1.7311 z"
         style="font-style:normal;font-variant:normal;font-weight:normal;font-stretch:normal;font-family:'League Spartan';-inkscape-font-specification:'League Spartan';stroke-width:0.26458332"
         id="path1112" />
      <path
         d="m -106.44745,118.14817 -1.44777,1.13801 2.62501,9.04236 1.68075,-1.32114 -0.5716,-1.77184 2.61265,-2.05366 1.586706,0.97393 1.680748,-1.32114 z m 3.28738,4.07942 -1.54762,1.2165 -0.80419,-2.59864 0.0166,-0.0131 z"
         style="font-style:normal;font-variant:normal;font-weight:normal;font-stretch:normal;font-family:'League Spartan';-inkscape-font-specification:'League Spartan';stroke-width:0.26458332"
         id="path1114" />
      <path
         d="m -102.19253,115.10376 4.255553,7.62397 1.737342,-0.96975 -1.681591,-3.01263 4.010368,1.71275 2.208641,-1.23282 -4.383459,-1.6863 c 0.768295,-0.8167 0.968561,-1.93448 0.328937,-3.08039 -0.835637,-1.49707 -2.335748,-1.66573 -3.749648,-0.87652 z m 3.625257,2.41252 -1.114183,-1.9961 0.203306,-0.11348 c 0.656124,-0.36624 1.467415,-0.75848 1.998715,0.19336 0.5313,0.95184 -0.228409,1.4365 -0.884532,1.80273 z"
         style="font-style:normal;font-variant:normal;font-weight:normal;font-stretch:normal;font-family:'League Spartan';-inkscape-font-specification:'League Spartan';stroke-width:0.26458332"
         id="path1116" />
    </g>
  </g>
</svg>
