<?xml version="1.0" encoding="UTF-8" standalone="no"?>
<!-- Created with Inkscape (http://www.inkscape.org/) -->

<svg
   xmlns:dc="http://purl.org/dc/elements/1.1/"
   xmlns:cc="http://creativecommons.org/ns#"
   xmlns:rdf="http://www.w3.org/1999/02/22-rdf-syntax-ns#"
   xmlns:svg="http://www.w3.org/2000/svg"
   xmlns="http://www.w3.org/2000/svg"
   xmlns:xlink="http://www.w3.org/1999/xlink"
   xmlns:sodipodi="http://sodipodi.sourceforge.net/DTD/sodipodi-0.dtd"
   xmlns:inkscape="http://www.inkscape.org/namespaces/inkscape"
   width="109.54401mm"
   height="153.25443mm"
   viewBox="0 0 109.54401 153.25443"
   version="1.1"
   id="svg865"
   inkscape:export-filename="/home/fauno/bitmap.png"
   inkscape:export-xdpi="132"
   inkscape:export-ydpi="132"
   inkscape:version="0.92.2 2405546, 2018-03-11"
   sodipodi:docname="copiar_no_es_robar_vectorizado_cabeza.svg">
  <defs
     id="defs859" />
  <sodipodi:namedview
     id="base"
     pagecolor="#ffffff"
     bordercolor="#666666"
     borderopacity="1.0"
     inkscape:pageopacity="0.0"
     inkscape:pageshadow="2"
     inkscape:zoom="0.35"
     inkscape:cx="-206.55226"
     inkscape:cy="79.524308"
     inkscape:document-units="mm"
     inkscape:current-layer="layer1"
     showgrid="false"
     showguides="false"
     fit-margin-top="0"
     fit-margin-left="0"
     fit-margin-right="0"
     fit-margin-bottom="0"
     inkscape:window-width="1280"
     inkscape:window-height="758"
     inkscape:window-x="0"
     inkscape:window-y="42"
     inkscape:window-maximized="0" />
  <metadata
     id="metadata862">
    <rdf:RDF>
      <cc:Work
         rdf:about="">
        <dc:format>image/svg+xml</dc:format>
        <dc:type
           rdf:resource="http://purl.org/dc/dcmitype/StillImage" />
        <dc:title></dc:title>
      </cc:Work>
    </rdf:RDF>
  </metadata>
  <g
     inkscape:label="Capa 1"
     inkscape:groupmode="layer"
     id="layer1"
     transform="translate(129.95473,-68.838325)">
    <circle
       style="fill:none;fill-opacity:1;stroke:none;stroke-width:1.33668339;stroke-miterlimit:4;stroke-dasharray:1.33668341, 1.33668341;stroke-dashoffset:0;stroke-opacity:1"
       id="path1539"
       cx="177.75484"
       cy="25.545658"
       r="50.270832"
       transform="rotate(105)" />
    <circle
       transform="rotate(105)"
       r="49.136902"
       cy="25.453074"
       cx="177.80829"
       id="circle1548"
       style="fill:#ffff00;fill-opacity:1;stroke:none;stroke-width:1.30653262;stroke-miterlimit:4;stroke-dasharray:1.30653266, 1.30653266;stroke-dashoffset:0;stroke-opacity:1" />
    <g
       id="g1537">
      <path
         inkscape:connector-curvature="0"
         id="path1477"
         d="m -81.138891,206.0382 c -4.41033,-0.40669 -4.9611,-0.54048 -7.4483,-1.80932 -3.00635,-1.53369 -8.54633,-5.81409 -10.11889,-7.81825 -1.28232,-1.63423 -1.726199,-2.98273 -2.344689,-7.12298 -0.41648,-2.78793 -0.64181,-3.42709 -1.54135,-4.37211 -5.17497,-5.43658 -8.49456,-11.8013 -9.77704,-18.74571 -1.35149,-3.49935 -1.18908,-7.39624 0.0391,-12.45929 0.61254,-2.79772 2.8009,-7.50591 4.64184,-9.98678 3.11963,-4.20405 7.00542,-7.11466 13.121089,-9.82826 2.13527,-0.94742 3.94974,-1.99526 4.32024,-2.49486 0.46723,-0.63003 0.87901,-2.70879 1.53331,-7.74052 0.91157,-7.01006 1.19004,-8.63656 3.01993,-17.63889 1.32718,-6.529202 2.48459,-11.173843 3.99989,-16.051392 0.66306,-2.134301 1.63342,-5.309301 2.15635,-7.055551 0.79786,-2.66433 3.08081,-8.158678 3.97245,-9.56043 1.43345,-2.253531 2.30218,-3.38223 2.72941,-3.546168 0.28164,-0.108083 0.43452,-0.321982 0.33974,-0.475351 -0.26554,-0.429651 0.70731,-0.679669 1.26671,-0.32554 0.42022,0.26602 0.41527,0.319889 -0.032,0.34799 -0.29105,0.0183 -0.1086,0.18737 0.40544,0.37574 0.53077,0.19449 1.13067,0.815801 1.38834,1.437878 0.68938,1.664301 0.60923,12.103852 -0.14027,18.27226 -0.34185,2.813412 -0.7033,5.829662 -0.80324,6.702782 -0.46149,4.032152 -2.68151,16.905042 -3.13322,18.168052 -0.58233,1.6283 -3.36149,13.00227 -3.36149,13.75725 0,0.93012 1.45957,1.30211 5.79241,1.47631 3.33345,0.13401 4.38282,0.0669 4.66314,-0.29838 0.19896,-0.25921 1.44246,-3.6463 2.76334,-7.52684 3.25336,-9.55786 8.60271,-21.829402 12.53318,-28.751392 0.71612,-1.261181 1.60456,-3.06084 1.97429,-3.99924 0.40975,-1.03995 1.18883,-2.11912 1.99516,-2.763671 0.72761,-0.58162 1.32292,-1.251191 1.32292,-1.48794 0,-0.427091 1.08487,-2.173039 3.1559,-5.079 0.59259,-0.83149 1.07743,-1.633789 1.07743,-1.782879 0,-0.1491 0.5235,-0.77847 1.16333,-1.398622 1.26063,-1.221848 2.69577,-1.474369 3.41998,-0.601749 0.54908,0.661601 0.58824,5.148061 0.0616,7.05894 -0.21389,0.77611 -0.45958,2.365549 -0.54597,3.5321 -0.0864,1.16654 -0.3148,2.51591 -0.50757,2.99861 -0.19278,0.48269 -0.68287,1.700911 -1.0891,2.707161 -0.40623,1.00625 -0.96928,2.91125 -1.25122,4.233339 -0.65693,3.08044 -3.1225,10.067953 -4.70703,13.339903 -0.37586,0.77611 -1.11251,2.71501 -1.637,4.30868 -0.5245,1.59367 -1.30737,3.4193 -1.73971,4.05695 -0.71254,1.05088 -1.69249,2.82881 -5.67037,10.28772 -1.82631,3.42449 -1.68458,3.98278 1.39056,5.47749 12.59929,6.12401 19.72904,12.7946 24.60786,23.02305 2.24129,4.69888 2.90629,7.66763 2.87134,12.81831 -0.0354,5.21999 -0.68666,8.10488 -2.78722,12.34723 -1.79569,3.62663 -3.31503,5.60308 -6.23366,8.10906 -2.07,1.77734 -7.59932,4.96471 -10.52082,6.06471 -0.87312,0.32875 -2.09713,1.03407 -2.72,1.56736 -0.62289,0.5333 -1.89289,1.41207 -2.82223,1.95283 -0.92934,0.54074 -2.20699,1.33076 -2.83923,1.75559 -1.5676,1.05334 -5.21875,2.24628 -6.87503,2.24628 -0.74864,0 -2.50376,0.23815 -3.90025,0.52923 -7.64344,1.59315 -11.546,2.31979 -12.08532,2.25024 -0.18235,-0.0235 -2.47467,-0.24038 -5.09405,-0.48193 z"
         style="fill:#ffffff;stroke-width:0.35277778"
         sodipodi:nodetypes="cccccccscccsssscccccccccsccscccssscscccsccccccccsccccsscccc" />
      <path
         inkscape:connector-curvature="0"
         id="path1504"
         d="m -81.138881,206.0382 c -4.41033,-0.40669 -4.9611,-0.54048 -7.4483,-1.80932 -3.00635,-1.53369 -8.54633,-5.81409 -10.11889,-7.81825 -1.28232,-1.63424 -1.726199,-2.98273 -2.344689,-7.12298 -0.41648,-2.78794 -0.64181,-3.42709 -1.54135,-4.37211 -5.17497,-5.43658 -8.49456,-11.8013 -9.77704,-18.74571 -1.35153,-3.49937 -1.18902,-7.39624 0.0391,-12.4593 0.61254,-2.79772 2.8009,-7.5059 4.64184,-9.98677 3.11963,-4.20405 7.00542,-7.11466 13.121089,-9.82826 2.13527,-0.94743 3.94974,-1.99526 4.32024,-2.49486 0.46723,-0.63004 0.87901,-2.7088 1.53331,-7.74053 0.91157,-7.01006 1.19004,-8.63656 3.01993,-17.63889 1.32718,-6.529199 2.48459,-11.173839 3.99989,-16.051389 0.66306,-2.1343 1.63342,-5.3093 2.15635,-7.05555 0.79786,-2.66433 3.08081,-8.15868 3.97245,-9.56043 1.43345,-2.25353 2.30218,-3.38223 2.72941,-3.54617 1.183489,-1.28741 2.862156,0.196698 3.36823,1.36072 0.68938,1.6643 0.60923,12.10385 -0.14027,18.27226 -0.34185,2.81341 -0.7033,5.82966 -0.80324,6.70278 -0.46149,4.032149 -2.68151,16.905039 -3.13322,18.168049 -0.58233,1.6283 -3.36149,13.00227 -3.36149,13.75726 0,0.93011 1.45957,1.30211 5.79241,1.4763 3.33345,0.13402 4.38282,0.0669 4.66314,-0.29837 0.19896,-0.25921 1.44246,-3.6463 2.76334,-7.52685 3.25336,-9.55786 8.60271,-21.829399 12.53318,-28.751389 0.71612,-1.26118 1.60456,-3.06084 1.97429,-3.99924 1.384166,-3.729961 8.71474,-12.51211 7.55141,-11.11349 0,-0.1491 0.5235,-0.77847 1.16333,-1.39862 1.26063,-1.22185 2.69577,-1.47437 3.41998,-0.60175 1.780109,7.03287 -2.020083,14.74163 -3.33226,20.53015 -0.65693,3.08044 -3.1225,10.067949 -4.70703,13.339899 -0.37586,0.77611 -1.11251,2.71501 -1.637,4.30868 -0.5245,1.59367 -1.30737,3.4193 -1.73971,4.05695 -0.71254,1.05088 -1.69249,2.82881 -5.67037,10.28772 -1.82631,3.4245 -1.68458,3.98279 1.39056,5.4775 12.59929,6.12401 19.72905,12.7946 24.60786,23.02305 2.24129,4.69888 2.9063,7.66763 2.87134,12.81831 -0.0354,5.21998 -0.68666,8.10488 -2.78721,12.34723 -1.79569,3.62663 -3.31504,5.60308 -6.23367,8.10906 -2.07,1.77734 -7.59932,4.96471 -10.52082,6.06471 -0.87312,0.32875 -2.09713,1.03407 -2.72,1.56736 -0.62289,0.5333 -1.89289,1.41207 -2.82223,1.95282 -0.92934,0.54075 -2.20699,1.33077 -2.83923,1.7556 -1.5676,1.05334 -5.21875,2.24628 -6.87503,2.24628 -5.628214,1.77504 -11.348273,3.05064 -15.98557,2.77947 -0.18235,-0.0235 -2.47467,-0.24038 -5.09405,-0.48193 z m 14.81667,-2.7805 c 10.31269,-2.08789 16.01879,-4.87748 18.08541,-8.84159 0.41151,-0.78934 0.93443,-2.3083 1.16204,-3.37545 l 0.41384,-1.94028 0.6146,1.49931 c 0.96066,2.34347 1.90726,2.07152 7.29976,-2.09715 5.68235,-4.39274 9.81879,-12.91855 9.81879,-20.23798 0,-5.43241 -3.16606,-13.72033 -6.9663,-18.23593 -5.2972,-6.29434 -10.672,-10.60927 -15.65615,-12.56885 -6.3616,-2.50114 -10.37255,-2.8592 -13.65247,-1.21875 -1.70979,0.85514 -2.12999,1.27017 -2.88341,2.84793 -0.48507,1.0158 -0.97459,1.84923 -1.08783,1.85208 -0.11324,0.003 -0.87917,-0.6164 -1.70207,-1.3761 -3.00716,-2.77619 -8.70813,-4.96872 -12.91957,-4.96872 -2.26401,0 -6.89738,1.23872 -9.47641,2.5335 -7.475109,3.75281 -10.071389,6.94834 -11.528849,14.18989 -0.72887,3.62145 -0.7335,3.81582 -0.15392,6.4697 0.32864,1.50484 0.97409,3.38963 1.43433,4.18842 1.0467,1.81665 4.101809,4.63603 6.270069,5.78629 0.90617,0.48072 1.64759,0.98723 1.64759,1.12556 0,0.13834 -0.81634,0.49395 -1.81408,0.79024 -3.161859,0.93898 -4.851589,2.16174 -5.798939,4.19639 -0.46571,1.00024 -0.84134,2.13612 -0.83472,2.52417 0.0355,2.0811 2.66675,6.1544 3.98388,6.16725 0.358279,0.004 1.372819,-0.62864 2.254529,-1.40475 0.88171,-0.77611 1.74179,-1.41111 1.91129,-1.41111 0.16951,0 -0.16869,0.94469 -0.75154,2.09932 -1.52359,3.01822 -2.60452,7.19967 -2.32042,8.97633 0.76196,4.76502 8.83481,11.08202 16.24638,12.71277 3.07598,0.67681 12.46449,0.51513 16.40417,-0.28249 z m -13.86449,-4.79305 c -1.51359,-0.15746 -3.49796,-0.56495 -4.40972,-0.90552 -2.39597,-0.89499 -6.03808,-3.39092 -7.98439,-5.47168 l -1.68546,-1.80189 0.14534,-2.53287 c 0.25787,-4.49398 2.11514,-7.41749 5.01076,-7.88738 1.10831,-0.17986 1.28045,-0.0806 2.09313,1.20675 0.68716,1.08853 1.59361,1.76845 4.04679,3.03547 6.08754,3.14409 11.24506,3.7063 20.15993,2.19758 6.5757,-1.11285 7.60025,-1.98109 3.8041,-3.22376 -3.17799,-1.04032 -5.02688,-2.16003 -6.83699,-4.14058 -1.97683,-2.16297 -2.59917,-3.80172 -2.58792,-6.81465 0.014,-3.74588 1.75518,-6.11409 5.98948,-8.14629 1.6487,-0.79128 2.54425,-0.95548 5.95937,-1.09262 3.52377,-0.14152 4.34774,-0.0583 6.68563,0.67486 2.17388,0.68176 3.05477,1.19543 4.76799,2.78034 1.1558,1.06925 2.39035,2.57908 2.74343,3.35519 0.81258,1.78615 0.87733,5.78004 0.11959,7.37686 -0.78043,1.64464 -3.58621,4.25316 -5.71778,5.3158 -2.92441,1.45789 -4.57565,4.09227 -4.98883,7.95917 -0.29569,2.76738 -0.81086,3.52685 -3.2194,4.74613 -5.18331,2.62395 -16.30689,4.1793 -24.09505,3.36909 z m 7.29369,-1.40988 c 1.13949,-0.43324 1.71838,-1.54236 1.69485,-3.24727 -0.0103,-0.74811 0.20844,-1.79576 0.48614,-2.3281 0.2777,-0.53235 0.50589,-1.48777 0.50708,-2.12317 0.003,-1.42291 -0.51883,-1.65585 -4.4111,-1.97026 -1.55417,-0.12554 -4.09417,-0.62221 -5.64444,-1.10371 -3.84705,-1.19486 -4.25989,-1.16348 -4.76336,0.36204 -0.22655,0.68645 -0.44838,1.83738 -0.49295,2.55764 -0.0446,0.72026 -0.26841,1.75645 -0.4974,2.30266 -0.84826,2.02331 -0.25602,3.66559 1.59807,4.43149 2.92748,1.20929 9.58486,1.8556 11.52311,1.11868 z m 10.40698,-0.96212 c 2.20691,-0.48054 4.37384,-1.03832 4.8154,-1.23951 0.88572,-0.40356 2.14605,-2.82756 1.77898,-3.4215 -0.12777,-0.20672 0.10761,-0.83562 0.52307,-1.39755 0.7148,-0.96683 1.08728,-3.29789 0.60416,-3.78101 -0.38436,-0.38436 -1.72112,-0.27393 -6.08973,0.50309 -2.32834,0.41412 -4.675,0.7538 -5.21481,0.75483 -0.5398,0.001 -1.51614,0.22529 -2.16964,0.49833 -1.35465,0.56601 -1.86826,1.95699 -1.28706,3.48565 0.26232,0.68998 0.22116,1.1833 -0.15965,1.91337 -0.80458,1.5425 -0.67452,3.23919 0.2763,3.60426 0.90576,0.34777 1.40643,0.28123 6.92298,-0.91996 z m 17.17773,-21.08994 c 2.33441,-3.56275 -0.92807,-8.27459 -6.15821,-8.89402 -1.76724,-0.2093 -1.80292,-0.1951 -1.80292,0.71755 0,0.5121 0.1364,0.93109 0.30311,0.93109 0.16671,0 1.02719,0.63735 1.91217,1.41635 1.31721,1.15946 1.68071,1.75049 2.00415,3.2586 0.2173,1.01324 0.63048,2.20151 0.91818,2.64059 0.70541,1.07659 2.09477,1.04207 2.82352,-0.0702 z m -16.63792,-13.93901 c -1.20847,-0.4886 -3.25095,-3.15402 -3.88907,-5.07523 -0.36951,-1.11251 -0.60806,-3.02238 -0.62922,-5.03777 -0.0292,-2.7786 0.0726,-3.38966 0.70696,-4.24397 0.59363,-0.79946 1.06086,-1.01914 2.34849,-1.1042 1.38797,-0.0917 1.78508,0.0498 2.90861,1.03627 2.00772,1.7628 3.06593,4.44747 3.26414,8.28108 0.13047,2.52341 0.0402,3.4793 -0.41992,4.44903 -0.83679,1.76341 -2.49754,2.4195 -4.28999,1.69479 z m 0.79412,-10.9227 c 0.63084,-1.26533 -0.1393,-2.98399 -1.40394,-3.13305 -1.59042,-0.18746 -1.90083,2.06161 -0.51501,3.73142 0.5537,0.66716 1.42319,0.39604 1.91895,-0.59837 z m -15.67511,10.11498 c -1.36264,-1.45045 -1.84222,-3.2026 -1.84222,-6.73047 0,-3.49796 0.4858,-5.49271 1.78049,-7.31093 0.64098,-0.90018 0.95892,-1.03503 2.44032,-1.03503 1.49697,0 1.8315,0.14598 2.76131,1.20498 1.97401,2.24828 2.37361,8.14866 0.79374,11.72023 -1.11462,2.51977 -1.63005,2.94979 -3.53571,2.94979 -1.25556,0 -1.82627,-0.19006 -2.39793,-0.79857 z m 3.95861,-10.21604 c 1.09587,-1.56457 0.5995,-3.44928 -0.90842,-3.44928 -1.60891,0 -2.15833,2.25139 -0.92548,3.79236 0.52992,0.66237 1.22009,0.53325 1.8339,-0.34308 z m 48.28993,19.30489 c 0.001,-1.3582 0.0653,-1.87059 0.14169,-1.13866 0.0764,0.73193 0.0751,1.84318 -0.003,2.46944 -0.0779,0.62627 -0.14041,0.0274 -0.13885,-1.33078 z"
         style="fill:#020202;stroke-width:0.35277778"
         sodipodi:nodetypes="cccccccscccsssscccccsccscccccccccscscccccssccccsccccsssscsccsscsscsccccsscscsscscsccsscscccccccsccscccccssccccscccsccccsssccsscccccsccccsscscscccscsscsccsccccccc" />
    </g>
    <text
       xml:space="preserve"
       style="font-style:normal;font-variant:normal;font-weight:normal;font-stretch:normal;font-size:10.58333302px;line-height:1.25;font-family:FontAwesome;-inkscape-font-specification:FontAwesome;letter-spacing:0px;word-spacing:0px;fill:#000000;fill-opacity:1;stroke:none;stroke-width:0.26458332"
       id="text1543"><textPath
         xlink:href="#path1539"
         id="textPath1545"><tspan
   style="font-style:normal;font-variant:normal;font-weight:normal;font-stretch:normal;font-family:'League Spartan';-inkscape-font-specification:'League Spartan';stroke-width:0.26458332"
   id="tspan1541">COPIAR NO ES ROBAR</tspan></textPath></text>
  </g>
</svg>
