<?xml version="1.0" encoding="UTF-8" standalone="no"?>
<!-- Created with Inkscape (http://www.inkscape.org/) -->

<svg
   xmlns:dc="http://purl.org/dc/elements/1.1/"
   xmlns:cc="http://creativecommons.org/ns#"
   xmlns:rdf="http://www.w3.org/1999/02/22-rdf-syntax-ns#"
   xmlns:svg="http://www.w3.org/2000/svg"
   xmlns="http://www.w3.org/2000/svg"
   xmlns:sodipodi="http://sodipodi.sourceforge.net/DTD/sodipodi-0.dtd"
   xmlns:inkscape="http://www.inkscape.org/namespaces/inkscape"
   width="210mm"
   height="297mm"
   viewBox="0 0 210 297"
   version="1.1"
   id="svg8"
   inkscape:export-filename="/home/fauno/bitmap.png"
   inkscape:export-xdpi="154.82001"
   inkscape:export-ydpi="154.82001"
   inkscape:version="0.92.2 2405546, 2018-03-11"
   sodipodi:docname="lo_tecnico_es_politico_edit.svg">
  <defs
     id="defs2" />
  <sodipodi:namedview
     id="base"
     pagecolor="#ffffff"
     bordercolor="#666666"
     borderopacity="1.0"
     inkscape:pageopacity="0.0"
     inkscape:pageshadow="2"
     inkscape:zoom="0.35"
     inkscape:cx="585.52108"
     inkscape:cy="437.35869"
     inkscape:document-units="mm"
     inkscape:current-layer="layer1"
     showgrid="false"
     inkscape:window-width="1280"
     inkscape:window-height="778"
     inkscape:window-x="0"
     inkscape:window-y="22"
     inkscape:window-maximized="0" />
  <metadata
     id="metadata5">
    <rdf:RDF>
      <cc:Work
         rdf:about="">
        <dc:format>image/svg+xml</dc:format>
        <dc:type
           rdf:resource="http://purl.org/dc/dcmitype/StillImage" />
        <dc:title></dc:title>
      </cc:Work>
    </rdf:RDF>
  </metadata>
  <g
     inkscape:label="Capa 1"
     inkscape:groupmode="layer"
     id="layer1">
    <rect
       style="opacity:1;fill:#ff0000;fill-opacity:0.70165746;stroke:none;stroke-width:1.23216951;stroke-miterlimit:4;stroke-dasharray:none;stroke-dashoffset:0;stroke-opacity:1"
       id="rect815"
       width="208.76784"
       height="295.76782"
       x="0.61608475"
       y="0.61608779" />
    <g
       id="g1020"
       transform="matrix(0.95576238,0,0,0.95576238,4.6449498,14.037545)">
      <text
         id="text935"
         y="64.097694"
         x="6.0543375"
         style="font-style:normal;font-variant:normal;font-weight:normal;font-stretch:normal;font-size:74.95495605px;line-height:1.25;font-family:Alegreya;-inkscape-font-specification:Alegreya;letter-spacing:0px;word-spacing:0px;fill:#000000;fill-opacity:1;stroke:none;stroke-width:1.87387395"
         xml:space="preserve"><tspan
           id="tspan925"
           style="font-style:normal;font-variant:normal;font-weight:bold;font-stretch:normal;line-height:0px;font-family:'Fantasque Sans Mono';-inkscape-font-specification:'Fantasque Sans Mono Bold';stroke-width:1.87387395"
           y="64.097694"
           x="6.0543375"
           sodipodi:role="line">LOTÉC</tspan></text>
      <text
         xml:space="preserve"
         style="font-style:normal;font-variant:normal;font-weight:normal;font-stretch:normal;font-size:74.95495605px;line-height:1.25;font-family:Alegreya;-inkscape-font-specification:Alegreya;letter-spacing:0px;word-spacing:0px;fill:#000000;fill-opacity:1;stroke:none;stroke-width:1.87387395"
         x="8.2685833"
         y="136.64029"
         id="text959"><tspan
           sodipodi:role="line"
           x="8.2685833"
           y="136.64029"
           style="font-style:normal;font-variant:normal;font-weight:bold;font-stretch:normal;line-height:0px;font-family:'Fantasque Sans Mono';-inkscape-font-specification:'Fantasque Sans Mono Bold';stroke-width:1.87387395"
           id="tspan957">NICOE</tspan></text>
      <text
         id="text976"
         y="209.18288"
         x="11.306309"
         style="font-style:normal;font-variant:normal;font-weight:normal;font-stretch:normal;font-size:74.95495605px;line-height:1.25;font-family:Alegreya;-inkscape-font-specification:Alegreya;letter-spacing:0px;word-spacing:0px;fill:#000000;fill-opacity:1;stroke:none;stroke-width:1.87387395"
         xml:space="preserve"><tspan
           id="tspan974"
           style="font-style:normal;font-variant:normal;font-weight:bold;font-stretch:normal;line-height:0px;font-family:'Fantasque Sans Mono';-inkscape-font-specification:'Fantasque Sans Mono Bold';stroke-width:1.87387395"
           y="209.18288"
           x="11.306309"
           sodipodi:role="line">SPOLÍ</tspan></text>
      <text
         xml:space="preserve"
         style="font-style:normal;font-variant:normal;font-weight:normal;font-stretch:normal;font-size:74.95495605px;line-height:1.25;font-family:Alegreya;-inkscape-font-specification:Alegreya;letter-spacing:0px;word-spacing:0px;fill:#000000;fill-opacity:1;stroke:none;stroke-width:1.87387395"
         x="14.636827"
         y="281.72546"
         id="text988"><tspan
           sodipodi:role="line"
           x="14.636827"
           y="281.72546"
           style="font-style:normal;font-variant:normal;font-weight:bold;font-stretch:normal;line-height:0px;font-family:'Fantasque Sans Mono';-inkscape-font-specification:'Fantasque Sans Mono Bold';stroke-width:1.87387395"
           id="tspan986">TICO.</tspan></text>
    </g>
    <g
       transform="matrix(0.95576238,0,0,0.95576238,6.9128033,11.013736)"
       id="g1038"
       style="fill:none;fill-opacity:0.70165746;stroke:#000000;stroke-opacity:1">
      <text
         xml:space="preserve"
         style="font-style:normal;font-variant:normal;font-weight:normal;font-stretch:normal;font-size:74.95495605px;line-height:1.25;font-family:Alegreya;-inkscape-font-specification:Alegreya;letter-spacing:0px;word-spacing:0px;fill:none;fill-opacity:0.70165746;stroke:#000000;stroke-width:1.87387395;stroke-opacity:1"
         x="6.0543375"
         y="64.097694"
         id="text1024"><tspan
           sodipodi:role="line"
           x="6.0543375"
           y="64.097694"
           style="font-style:normal;font-variant:normal;font-weight:bold;font-stretch:normal;line-height:0px;font-family:'Fantasque Sans Mono';-inkscape-font-specification:'Fantasque Sans Mono Bold';fill:none;fill-opacity:0.70165746;stroke:#000000;stroke-width:1.87387395;stroke-opacity:1"
           id="tspan1022">LOTÉC</tspan></text>
      <text
         id="text1028"
         y="136.64029"
         x="8.2685833"
         style="font-style:normal;font-variant:normal;font-weight:normal;font-stretch:normal;font-size:74.95495605px;line-height:1.25;font-family:Alegreya;-inkscape-font-specification:Alegreya;letter-spacing:0px;word-spacing:0px;fill:none;fill-opacity:0.70165746;stroke:#000000;stroke-width:1.87387395;stroke-opacity:1"
         xml:space="preserve"><tspan
           id="tspan1026"
           style="font-style:normal;font-variant:normal;font-weight:bold;font-stretch:normal;line-height:0px;font-family:'Fantasque Sans Mono';-inkscape-font-specification:'Fantasque Sans Mono Bold';fill:none;fill-opacity:0.70165746;stroke:#000000;stroke-width:1.87387395;stroke-opacity:1"
           y="136.64029"
           x="8.2685833"
           sodipodi:role="line">NICOE</tspan></text>
      <text
         xml:space="preserve"
         style="font-style:normal;font-variant:normal;font-weight:normal;font-stretch:normal;font-size:74.95495605px;line-height:1.25;font-family:Alegreya;-inkscape-font-specification:Alegreya;letter-spacing:0px;word-spacing:0px;fill:none;fill-opacity:0.70165746;stroke:#000000;stroke-width:1.87387395;stroke-opacity:1"
         x="11.306309"
         y="209.18288"
         id="text1032"><tspan
           sodipodi:role="line"
           x="11.306309"
           y="209.18288"
           style="font-style:normal;font-variant:normal;font-weight:bold;font-stretch:normal;line-height:0px;font-family:'Fantasque Sans Mono';-inkscape-font-specification:'Fantasque Sans Mono Bold';fill:none;fill-opacity:0.70165746;stroke:#000000;stroke-width:1.87387395;stroke-opacity:1"
           id="tspan1030">SPOLÍ</tspan></text>
      <text
         id="text1036"
         y="281.72546"
         x="14.636827"
         style="font-style:normal;font-variant:normal;font-weight:normal;font-stretch:normal;font-size:74.95495605px;line-height:1.25;font-family:Alegreya;-inkscape-font-specification:Alegreya;letter-spacing:0px;word-spacing:0px;fill:none;fill-opacity:0.70165746;stroke:#000000;stroke-width:1.87387395;stroke-opacity:1"
         xml:space="preserve"><tspan
           id="tspan1034"
           style="font-style:normal;font-variant:normal;font-weight:bold;font-stretch:normal;line-height:0px;font-family:'Fantasque Sans Mono';-inkscape-font-specification:'Fantasque Sans Mono Bold';fill:none;fill-opacity:0.70165746;stroke:#000000;stroke-width:1.87387395;stroke-opacity:1"
           y="281.72546"
           x="14.636827"
           sodipodi:role="line">TICO.</tspan></text>
    </g>
  </g>
</svg>
