<?xml version="1.0" encoding="UTF-8" standalone="no"?>
<!-- Created with Inkscape (http://www.inkscape.org/) -->

<svg
   xmlns:dc="http://purl.org/dc/elements/1.1/"
   xmlns:cc="http://creativecommons.org/ns#"
   xmlns:rdf="http://www.w3.org/1999/02/22-rdf-syntax-ns#"
   xmlns:svg="http://www.w3.org/2000/svg"
   xmlns="http://www.w3.org/2000/svg"
   xmlns:sodipodi="http://sodipodi.sourceforge.net/DTD/sodipodi-0.dtd"
   xmlns:inkscape="http://www.inkscape.org/namespaces/inkscape"
   width="208.76784mm"
   height="255.70236mm"
   viewBox="0 0 208.76784 255.70236"
   version="1.1"
   id="svg1153"
   inkscape:version="0.92.2 2405546, 2018-03-11"
   sodipodi:docname="lo_tecnico_es_politico_amarillo_edit.svg">
  <defs
     id="defs1147" />
  <sodipodi:namedview
     id="base"
     pagecolor="#ffffff"
     bordercolor="#666666"
     borderopacity="1.0"
     inkscape:pageopacity="0.0"
     inkscape:pageshadow="2"
     inkscape:zoom="0.35"
     inkscape:cx="867.37906"
     inkscape:cy="223.21707"
     inkscape:document-units="mm"
     inkscape:current-layer="layer1"
     showgrid="false"
     fit-margin-top="0"
     fit-margin-left="0"
     fit-margin-right="0"
     fit-margin-bottom="0"
     inkscape:window-width="1280"
     inkscape:window-height="758"
     inkscape:window-x="0"
     inkscape:window-y="42"
     inkscape:window-maximized="0" />
  <metadata
     id="metadata1150">
    <rdf:RDF>
      <cc:Work
         rdf:about="">
        <dc:format>image/svg+xml</dc:format>
        <dc:type
           rdf:resource="http://purl.org/dc/dcmitype/StillImage" />
        <dc:title></dc:title>
      </cc:Work>
    </rdf:RDF>
  </metadata>
  <g
     inkscape:label="Capa 1"
     inkscape:groupmode="layer"
     id="layer1"
     transform="translate(136.88988,47.809513)">
    <rect
       y="-47.809513"
       x="-136.88988"
       height="255.70236"
       width="208.76784"
       id="rect1040"
       style="opacity:1;fill:#ff0000;fill-opacity:0.70165746;stroke:none;stroke-width:1.14567745;stroke-miterlimit:4;stroke-dasharray:none;stroke-dashoffset:0;stroke-opacity:1"
       inkscape:export-filename="/home/fauno/g1096.png"
       inkscape:export-xdpi="154"
       inkscape:export-ydpi="154" />
    <g
       id="g1116"
       transform="matrix(0.95576239,0,0,0.95576239,-134.59965,-55.025551)"
       style="fill:#ffff00;fill-opacity:0.70165746;stroke:#000000;stroke-opacity:1"
       inkscape:export-filename="/home/fauno/g1096.png"
       inkscape:export-xdpi="154"
       inkscape:export-ydpi="154">
      <g
         inkscape:export-ydpi="154"
         inkscape:export-xdpi="154"
         inkscape:export-filename="/home/fauno/g1096.png"
         transform="matrix(0.83803166,0,0,0.83803166,-0.253551,20.747045)"
         id="g1114"
         style="fill:#ffff00;fill-opacity:0.70165746;stroke:#000000;stroke-opacity:1">
        <text
           xml:space="preserve"
           style="font-style:normal;font-variant:normal;font-weight:normal;font-stretch:normal;font-size:74.95495605px;line-height:1.25;font-family:Alegreya;-inkscape-font-specification:Alegreya;letter-spacing:0px;word-spacing:0px;fill:#ffff00;fill-opacity:0.70165746;stroke:#000000;stroke-width:1.87387395;stroke-opacity:1"
           x="6.0543375"
           y="64.097694"
           id="text1100"><tspan
             sodipodi:role="line"
             x="6.0543375"
             y="64.097694"
             style="font-style:normal;font-variant:normal;font-weight:bold;font-stretch:normal;line-height:0px;font-family:'Fantasque Sans Mono';-inkscape-font-specification:'Fantasque Sans Mono Bold';fill:#ffff00;fill-opacity:0.70165746;stroke:#000000;stroke-width:1.87387395;stroke-opacity:1"
             id="tspan1098">!LO&gt;TÉ</tspan></text>
        <text
           id="text1104"
           y="136.64029"
           x="8.2685833"
           style="font-style:normal;font-variant:normal;font-weight:normal;font-stretch:normal;font-size:74.95495605px;line-height:1.25;font-family:Alegreya;-inkscape-font-specification:Alegreya;letter-spacing:0px;word-spacing:0px;fill:#ffff00;fill-opacity:0.70165746;stroke:#000000;stroke-width:1.87387395;stroke-opacity:1"
           xml:space="preserve"><tspan
             id="tspan1102"
             style="font-style:normal;font-variant:normal;font-weight:bold;font-stretch:normal;line-height:0px;font-family:'Fantasque Sans Mono';-inkscape-font-specification:'Fantasque Sans Mono Bold';fill:#ffff00;fill-opacity:0.70165746;stroke:#000000;stroke-width:1.87387395;stroke-opacity:1"
             y="136.64029"
             x="8.2685833"
             sodipodi:role="line">CNICO-</tspan></text>
        <text
           xml:space="preserve"
           style="font-style:normal;font-variant:normal;font-weight:normal;font-stretch:normal;font-size:74.95495605px;line-height:1.25;font-family:Alegreya;-inkscape-font-specification:Alegreya;letter-spacing:0px;word-spacing:0px;fill:#ffff00;fill-opacity:0.70165746;stroke:#000000;stroke-width:1.87387395;stroke-opacity:1"
           x="11.306309"
           y="209.18288"
           id="text1108"><tspan
             sodipodi:role="line"
             x="11.306309"
             y="209.18288"
             style="font-style:normal;font-variant:normal;font-weight:bold;font-stretch:normal;line-height:0px;font-family:'Fantasque Sans Mono';-inkscape-font-specification:'Fantasque Sans Mono Bold';fill:#ffff00;fill-opacity:0.70165746;stroke:#000000;stroke-width:1.87387395;stroke-opacity:1"
             id="tspan1106">ES#POL</tspan></text>
        <text
           id="text1112"
           y="281.72546"
           x="14.636827"
           style="font-style:normal;font-variant:normal;font-weight:normal;font-stretch:normal;font-size:74.95495605px;line-height:1.25;font-family:Alegreya;-inkscape-font-specification:Alegreya;letter-spacing:0px;word-spacing:0px;fill:#ffff00;fill-opacity:0.70165746;stroke:#000000;stroke-width:1.87387395;stroke-opacity:1"
           xml:space="preserve"><tspan
             id="tspan1110"
             style="font-style:normal;font-variant:normal;font-weight:bold;font-stretch:normal;line-height:0px;font-family:'Fantasque Sans Mono';-inkscape-font-specification:'Fantasque Sans Mono Bold';fill:#ffff00;fill-opacity:0.70165746;stroke:#000000;stroke-width:1.87387395;stroke-opacity:1"
             y="281.72546"
             x="14.636827"
             sodipodi:role="line">ÍTICO*</tspan></text>
      </g>
    </g>
    <g
       transform="matrix(0.95576239,0,0,0.95576239,-132.861,-57.822575)"
       id="g1058"
       inkscape:export-filename="/home/fauno/g1096.png"
       inkscape:export-xdpi="154"
       inkscape:export-ydpi="154">
      <g
         id="g1096"
         transform="matrix(0.83803166,0,0,0.83803166,-0.253551,20.747045)"
         inkscape:export-filename="/home/fauno/g1096.png"
         inkscape:export-xdpi="154"
         inkscape:export-ydpi="154">
        <text
           id="text1044"
           y="64.097694"
           x="6.0543375"
           style="font-style:normal;font-variant:normal;font-weight:normal;font-stretch:normal;font-size:74.95495605px;line-height:1.25;font-family:Alegreya;-inkscape-font-specification:Alegreya;letter-spacing:0px;word-spacing:0px;fill:#000000;fill-opacity:1;stroke:none;stroke-width:1.87387395"
           xml:space="preserve"><tspan
             id="tspan1042"
             style="font-style:normal;font-variant:normal;font-weight:bold;font-stretch:normal;line-height:0px;font-family:'Fantasque Sans Mono';-inkscape-font-specification:'Fantasque Sans Mono Bold';stroke-width:1.87387395"
             y="64.097694"
             x="6.0543375"
             sodipodi:role="line">!LO&gt;TÉ</tspan></text>
        <text
           xml:space="preserve"
           style="font-style:normal;font-variant:normal;font-weight:normal;font-stretch:normal;font-size:74.95495605px;line-height:1.25;font-family:Alegreya;-inkscape-font-specification:Alegreya;letter-spacing:0px;word-spacing:0px;fill:#000000;fill-opacity:1;stroke:none;stroke-width:1.87387395"
           x="8.2685833"
           y="136.64029"
           id="text1048"><tspan
             sodipodi:role="line"
             x="8.2685833"
             y="136.64029"
             style="font-style:normal;font-variant:normal;font-weight:bold;font-stretch:normal;line-height:0px;font-family:'Fantasque Sans Mono';-inkscape-font-specification:'Fantasque Sans Mono Bold';stroke-width:1.87387395"
             id="tspan1046">CNICO-</tspan></text>
        <text
           id="text1052"
           y="209.18288"
           x="11.306309"
           style="font-style:normal;font-variant:normal;font-weight:normal;font-stretch:normal;font-size:74.95495605px;line-height:1.25;font-family:Alegreya;-inkscape-font-specification:Alegreya;letter-spacing:0px;word-spacing:0px;fill:#000000;fill-opacity:1;stroke:none;stroke-width:1.87387395"
           xml:space="preserve"><tspan
             id="tspan1050"
             style="font-style:normal;font-variant:normal;font-weight:bold;font-stretch:normal;line-height:0px;font-family:'Fantasque Sans Mono';-inkscape-font-specification:'Fantasque Sans Mono Bold';stroke-width:1.87387395"
             y="209.18288"
             x="11.306309"
             sodipodi:role="line">ES#POL</tspan></text>
        <text
           xml:space="preserve"
           style="font-style:normal;font-variant:normal;font-weight:normal;font-stretch:normal;font-size:74.95495605px;line-height:1.25;font-family:Alegreya;-inkscape-font-specification:Alegreya;letter-spacing:0px;word-spacing:0px;fill:#000000;fill-opacity:1;stroke:none;stroke-width:1.87387395"
           x="14.636827"
           y="281.72546"
           id="text1056"><tspan
             sodipodi:role="line"
             x="14.636827"
             y="281.72546"
             style="font-style:normal;font-variant:normal;font-weight:bold;font-stretch:normal;line-height:0px;font-family:'Fantasque Sans Mono';-inkscape-font-specification:'Fantasque Sans Mono Bold';stroke-width:1.87387395"
             id="tspan1054">ÍTICO*</tspan></text>
      </g>
    </g>
  </g>
</svg>
