<?xml version="1.0" encoding="UTF-8" standalone="no"?>
<!-- Created with Inkscape (http://www.inkscape.org/) -->

<svg
   xmlns:dc="http://purl.org/dc/elements/1.1/"
   xmlns:cc="http://creativecommons.org/ns#"
   xmlns:rdf="http://www.w3.org/1999/02/22-rdf-syntax-ns#"
   xmlns:svg="http://www.w3.org/2000/svg"
   xmlns="http://www.w3.org/2000/svg"
   xmlns:sodipodi="http://sodipodi.sourceforge.net/DTD/sodipodi-0.dtd"
   xmlns:inkscape="http://www.inkscape.org/namespaces/inkscape"
   width="270.93335mm"
   height="171.19296mm"
   viewBox="0 0 270.93335 171.19296"
   version="1.1"
   id="svg4827"
   inkscape:export-filename="/home/fauno/copiar_no_es_robar.png"
   inkscape:export-xdpi="96"
   inkscape:export-ydpi="96"
   inkscape:version="0.92.2 2405546, 2018-03-11"
   sodipodi:docname="copiar_no_es_robar_bicicleta.svg">
  <defs
     id="defs4821" />
  <sodipodi:namedview
     id="base"
     pagecolor="#ffffff"
     bordercolor="#666666"
     borderopacity="1.0"
     inkscape:pageopacity="0.0"
     inkscape:pageshadow="2"
     inkscape:zoom="0.49497476"
     inkscape:cx="1005.9267"
     inkscape:cy="278.78871"
     inkscape:document-units="mm"
     inkscape:current-layer="text4917"
     showgrid="false"
     fit-margin-top="0"
     fit-margin-left="0"
     fit-margin-right="0"
     fit-margin-bottom="0"
     inkscape:window-width="1280"
     inkscape:window-height="778"
     inkscape:window-x="0"
     inkscape:window-y="22"
     inkscape:window-maximized="0" />
  <metadata
     id="metadata4824">
    <rdf:RDF>
      <cc:Work
         rdf:about="">
        <dc:format>image/svg+xml</dc:format>
        <dc:type
           rdf:resource="http://purl.org/dc/dcmitype/StillImage" />
        <dc:title></dc:title>
      </cc:Work>
    </rdf:RDF>
  </metadata>
  <g
     inkscape:label="Capa 1"
     inkscape:groupmode="layer"
     id="layer1"
     transform="translate(115.19762,-279.98076)">
    <path
       id="path4885"
       d="m -36.092529,372.92807 h -32.436226 q -4.132002,0 -5.939754,-3.61551 -1.807751,-3.6155 0.67145,-6.9211 l 19.420416,-25.92832 q -6.714506,-3.20231 -14.152112,-3.20231 -13.63561,0 -23.345817,9.71021 -9.710208,9.71021 -9.710208,23.34582 0,13.63561 9.710208,23.34582 9.710207,9.7102 23.345817,9.7102 11.879513,0 20.969917,-7.48925 9.090406,-7.48926 11.466309,-18.95556 z m -19.213815,-13.22242 h 19.213815 q -1.859399,-8.7805 -7.747506,-15.28841 z m 49.5840422,0 29.7504228,-39.66723 h -49.58404 l -10.226709,13.63561 q 10.846512,10.63991 13.015812,26.03162 z m 115.6960918,6.61121 q 0,-13.63561 -9.71021,-23.34582 -9.710205,-9.71021 -23.345817,-9.71021 -6.198005,0 -12.499311,2.47921 l 17.974213,26.85802 q 1.549503,2.3759 1.033004,5.0617 -0.516501,2.68581 -2.789102,4.132 -1.549501,1.13631 -3.718804,1.13631 -3.615502,0 -5.474904,-2.99571 L 53.468644,343.07434 q -9.606907,9.81351 -9.606907,23.24252 0,13.63561 9.710206,23.34582 9.710211,9.7102 23.34582,9.7102 13.635612,0 23.345817,-9.7102 9.71021,-9.71021 9.71021,-23.34582 z m 13.22241,0 q 0,19.11051 -13.58396,32.69448 -13.583964,13.58396 -32.694477,13.58396 -19.110515,0 -32.694475,-13.58396 -13.583963,-13.58397 -13.583963,-32.69448 0,-10.02011 4.080352,-18.95557 4.080356,-8.93545 11.311361,-15.44336 L 39.316532,321.79452 2.8516059,370.24226 q -1.85940178,2.68581 -5.2683041,2.68581 H -22.766816 q -2.375903,16.94121 -15.391715,28.30422 -13.015809,11.36301 -30.370224,11.36301 -19.110514,0 -32.694475,-13.58396 -13.58396,-13.58397 -13.58396,-32.69448 0,-19.11051 13.58396,-32.69448 13.583961,-13.58396 32.694475,-13.58396 11.776209,0 22.209519,5.68151 l 14.152113,-18.90392 h -23.139221 q -2.685804,0 -4.648503,-1.9627 -1.9627,-1.9627 -1.9627,-4.6485 0,-2.6858 1.9627,-4.64851 1.962699,-1.9627 4.648503,-1.9627 h 39.667234 v 13.22241 H 29.296425 L 20.51592,293.5936 H -2.4166982 q -2.6858039,0 -4.6485043,-1.9627 -1.962703,-1.9627 -1.962703,-4.6485 0,-2.68581 1.962703,-4.64851 1.9627004,-1.9627 4.6485043,-1.9627 H 24.028121 q 3.408902,0 5.474906,2.89241 l 27.581122,41.32003 q 9.400305,-4.54521 19.833614,-4.54521 19.110513,0 32.694477,13.58396 13.58396,13.58397 13.58396,32.69448 z"
       inkscape:connector-curvature="0"
       style="fill:#999999;stroke:#000000;stroke-width:0.78085101;stroke-miterlimit:4;stroke-dasharray:0.78085101, 0.78085101;stroke-dashoffset:0;stroke-opacity:1" />
    <g
       id="g4913"
       transform="matrix(0.3904255,0,0,0.3904255,-69.267079,287.08394)">
      <circle
         style="fill:#ffffff;fill-opacity:1;stroke:#000006;stroke-width:2;stroke-miterlimit:4;stroke-dasharray:none;stroke-opacity:1"
         id="circle4900"
         cx="454.98138"
         cy="237.12488"
         r="88.733482" />
      <circle
         r="88.733482"
         cy="237.12488"
         cx="89.356689"
         id="path4898"
         style="fill:#ffffff;fill-opacity:1;stroke:#000006;stroke-width:2;stroke-miterlimit:4;stroke-dasharray:none;stroke-opacity:1" />
      <path
         id="path4896"
         d="M 168.314,253.73992 H 85.234833 q -10.58333,0 -15.21354,-9.26042 -4.63021,-9.26041 1.71979,-17.72708 L 121.48275,160.342 q -17.19792,-8.20208 -36.247917,-8.20208 -34.925,0 -59.795833,24.87083 -24.8708334,24.87084 -24.8708334,59.79584 0,34.925 24.8708334,59.79583 24.870833,24.87083 59.795833,24.87083 30.427087,0 53.710417,-19.18229 23.28333,-19.18229 29.36875,-48.55104 z m -49.2125,-33.86667 h 49.2125 q -4.7625,-22.48958 -19.84375,-39.15833 z m 127,0 76.2,-101.6 h -127 l -26.19375,34.925 q 27.78125,27.25209 33.3375,66.675 z m 296.33333,16.93334 q 0,-34.925 -24.87083,-59.79584 -24.87083,-24.87083 -59.79583,-24.87083 -15.875,0 -32.01459,6.35 l 46.0375,68.79167 q 3.96875,6.08541 2.64584,12.96458 -1.32292,6.87917 -7.14375,10.58333 -3.96875,2.91042 -9.525,2.91042 -9.26042,0 -14.02292,-7.67292 l -46.0375,-68.79166 q -24.60625,25.13541 -24.60625,59.53125 0,34.925 24.87083,59.79583 24.87084,24.87083 59.79584,24.87083 34.925,0 59.79583,-24.87083 24.87083,-24.87083 24.87083,-59.79583 z m 33.86667,0 q 0,48.94791 -34.79271,83.74062 -34.79271,34.79271 -83.74062,34.79271 -48.94792,0 -83.74063,-34.79271 -34.79271,-34.79271 -34.79271,-83.74062 0,-25.66459 10.45104,-48.55105 10.45105,-22.88645 28.97188,-39.5552 l -17.19792,-25.92917 -93.39791,124.08958 q -4.7625,6.87917 -13.49375,6.87917 h -52.12292 q -6.08542,43.39167 -39.42292,72.49583 -33.3375,29.10417 -77.787497,29.10417 -48.947916,0 -83.740625,-34.79271 -34.792705,-34.79271 -34.792705,-83.74062 0,-48.94792 34.792705,-83.74063 34.792709,-34.79271 83.740625,-34.79271 30.162497,0 56.885417,14.55209 L 178.36817,84.40659 H 119.1015 q -6.87917,0 -11.90625,-5.02709 -5.02708,-5.02708 -5.02708,-11.90626 0,-6.87916 5.02708,-11.90625 5.02708,-5.02708 11.90625,-5.02708 h 101.6 V 84.40659 H 335.79525 L 313.30567,50.53991 h -58.7375 q -6.87917,0 -11.90625,-5.02708 -5.02709,-5.02708 -5.02709,-11.90625 0,-6.87917 5.02709,-11.90625 5.02708,-5.02708 11.90625,-5.02708 h 67.73333 q 8.73125,0 14.02292,7.40833 l 70.64375,105.83334 q 24.07708,-11.64167 50.8,-11.64167 48.94791,0 83.74062,34.79271 34.79271,34.79271 34.79271,83.74063 z"
         inkscape:connector-curvature="0"
         style="stroke-width:0.26458332" />
    </g>
    <g
       aria-label="COPIAR NO ES ROBAR"
       style="font-style:normal;font-variant:normal;font-weight:normal;font-stretch:normal;font-size:23.31097221px;line-height:1.25;font-family:FontAwesome;-inkscape-font-specification:FontAwesome;letter-spacing:0px;word-spacing:0px;fill:#000000;fill-opacity:1;stroke:none;stroke-width:0.5827744"
       id="text4917">
      <path
         d="m -104.07514,446.8612 c -4.40577,0 -6.34058,-3.07705 -6.34058,-5.66457 0,-2.5642 1.93481,-5.64125 6.34058,-5.64125 2.23785,0 3.77638,1.18886 3.77638,1.18886 l 1.864877,-3.72976 c 0,0 -2.144607,-1.77163 -6.317277,-1.77163 -5.45476,0 -10.42,4.47571 -10.42,10.00041 0,5.50139 4.98855,9.93047 10.42,9.93047 4.17267,0 6.317277,-1.77163 6.317277,-1.77163 l -1.864877,-3.72976 c 0,0 -1.53853,1.18886 -3.77638,1.18886 z"
         style="font-style:normal;font-variant:normal;font-weight:normal;font-stretch:normal;font-family:'League Spartan';-inkscape-font-specification:'League Spartan';stroke-width:0.5827744"
         id="path940" />
      <path
         d="m -97.596874,441.19663 c 0,5.61795 4.009487,9.9771 9.697365,9.9771 5.5247,0 9.674053,-4.35915 9.674053,-9.9771 0,-5.61794 -4.335841,-9.95378 -9.674053,-9.95378 -5.291591,0 -9.697365,4.33584 -9.697365,9.95378 z m 4.732128,0 c 0,-2.86724 1.585146,-5.73449 4.965237,-5.73449 3.403402,0 4.941926,2.86725 4.941926,5.73449 0,2.86725 -1.44528,5.7345 -4.941926,5.7345 -3.58989,0 -4.965237,-2.86725 -4.965237,-5.7345 z"
         style="font-style:normal;font-variant:normal;font-weight:normal;font-stretch:normal;font-family:'League Spartan';-inkscape-font-specification:'League Spartan';stroke-width:0.5827744"
         id="path942" />
      <path
         d="m -76.291737,431.59251 v 19.23156 h 4.382463 v -7.13316 h 2.63414 c 3.753066,0 6.573694,-2.21454 6.573694,-6.17741 0,-3.98618 -2.820628,-5.92099 -6.573694,-5.92099 z m 4.382463,8.60175 v -5.1051 h 1.235481 c 1.725012,0 3.35678,0.58277 3.35678,2.56421 0,1.95812 -1.631768,2.54089 -3.35678,2.54089 z"
         style="font-style:normal;font-variant:normal;font-weight:normal;font-stretch:normal;font-family:'League Spartan';-inkscape-font-specification:'League Spartan';stroke-width:0.5827744"
         id="path944" />
      <path
         d="m -56.383804,431.59251 h -4.382462 v 19.23156 h 4.382462 z"
         style="font-style:normal;font-variant:normal;font-weight:normal;font-stretch:normal;font-family:'League Spartan';-inkscape-font-specification:'League Spartan';stroke-width:0.5827744"
         id="path946" />
      <path
         d="m -43.805346,431.59251 h -4.05611 l -7.762553,19.23156 h 4.708816 l 1.421969,-3.84631 h 7.319646 l 1.421969,3.84631 h 4.708816 z m 0.139865,11.53894 h -4.33584 l 2.144609,-5.59464 h 0.04662 z"
         style="font-style:normal;font-variant:normal;font-weight:normal;font-stretch:normal;font-family:'League Spartan';-inkscape-font-specification:'League Spartan';stroke-width:0.5827744"
         id="path948" />
      <path
         d="m -35.315415,431.59251 v 19.23156 h 4.382463 v -7.59938 l 5.874365,7.59938 h 5.571322 l -6.620316,-7.94905 c 2.354408,-0.74595 3.939554,-2.68076 3.939554,-5.57132 0,-3.77638 -2.704072,-5.71119 -6.270651,-5.71119 z m 4.382463,8.53182 v -5.03517 h 0.512841 c 1.655079,0 3.636512,0.11655 3.636512,2.51758 0,2.40104 -1.981433,2.51759 -3.636512,2.51759 z"
         style="font-style:normal;font-variant:normal;font-weight:normal;font-stretch:normal;font-family:'League Spartan';-inkscape-font-specification:'League Spartan';stroke-width:0.5827744"
         id="path950" />
      <path
         d="m -7.8496315,438.88885 h 0.046622 l 7.64599888,11.93522 H 4.2254522 v -19.23156 h -4.38246282 v 11.93522 h -0.046622 L -7.8496315,431.59251 h -4.3824625 v 19.23156 h 4.3824625 z"
         style="font-style:normal;font-variant:normal;font-weight:normal;font-stretch:normal;font-family:'League Spartan';-inkscape-font-specification:'League Spartan';stroke-width:0.5827744"
         id="path952" />
      <path
         d="m 6.1642728,441.19663 c 0,5.61795 4.0094872,9.9771 9.6973642,9.9771 5.524701,0 9.674054,-4.35915 9.674054,-9.9771 0,-5.61794 -4.335841,-9.95378 -9.674054,-9.95378 -5.29159,0 -9.6973642,4.33584 -9.6973642,9.95378 z m 4.7321272,0 c 0,-2.86724 1.585146,-5.73449 4.965237,-5.73449 3.403402,0 4.941926,2.86725 4.941926,5.73449 0,2.86725 -1.44528,5.7345 -4.941926,5.7345 -3.589889,0 -4.965237,-2.86725 -4.965237,-5.7345 z"
         style="font-style:normal;font-variant:normal;font-weight:normal;font-stretch:normal;font-family:'League Spartan';-inkscape-font-specification:'League Spartan';stroke-width:0.5827744"
         id="path954" />
      <path
         d="M 44.846284,431.59251 H 33.843505 v 19.23156 h 11.002779 v -3.84631 h -6.620316 v -3.86963 h 6.340585 v -3.84631 h -6.340585 v -3.823 h 6.620316 z"
         style="font-style:normal;font-variant:normal;font-weight:normal;font-stretch:normal;font-family:'League Spartan';-inkscape-font-specification:'League Spartan';stroke-width:0.5827744"
         id="path956" />
      <path
         d="m 54.452227,431.24285 c -3.100359,0 -6.270651,2.28447 -6.270651,5.87436 0,2.00475 1.352036,3.79969 3.659822,4.94193 2.284476,1.14224 4.335841,1.77163 4.335841,3.17029 0,1.79495 -1.818256,1.88819 -2.774005,1.88819 -2.14461,0 -4.708817,-2.16792 -4.708817,-2.16792 l -2.191231,3.68313 c 0,0 2.727383,2.5409 7.226401,2.5409 3.753067,0 7.249712,-1.60846 7.249712,-6.20072 0,-2.51758 -2.354408,-4.33584 -4.499017,-5.24497 -2.191232,-0.93244 -4.009487,-1.7017 -4.009487,-2.774 0,-1.049 0.792573,-1.72501 2.284475,-1.72501 1.981433,0 3.892932,1.32872 3.892932,1.32872 l 1.771634,-3.49664 c 0,0 -2.470963,-1.81826 -5.967609,-1.81826 z"
         style="font-style:normal;font-variant:normal;font-weight:normal;font-stretch:normal;font-family:'League Spartan';-inkscape-font-specification:'League Spartan';stroke-width:0.5827744"
         id="path958" />
      <path
         d="m 69.40184,431.59251 v 19.23156 h 4.382463 v -7.59938 l 5.874365,7.59938 h 5.571322 l -6.620316,-7.94905 c 2.354408,-0.74595 3.939554,-2.68076 3.939554,-5.57132 0,-3.77638 -2.704073,-5.71119 -6.270651,-5.71119 z m 4.382463,8.53182 v -5.03517 h 0.512841 c 1.655079,0 3.636512,0.11655 3.636512,2.51758 0,2.40104 -1.981433,2.51759 -3.636512,2.51759 z"
         style="font-style:normal;font-variant:normal;font-weight:normal;font-stretch:normal;font-family:'League Spartan';-inkscape-font-specification:'League Spartan';stroke-width:0.5827744"
         id="path960" />
      <path
         d="m 85.248562,441.19663 c 0,5.61795 4.009488,9.9771 9.697365,9.9771 5.524703,0 9.674053,-4.35915 9.674053,-9.9771 0,-5.61794 -4.33584,-9.95378 -9.674053,-9.95378 -5.291591,0 -9.697365,4.33584 -9.697365,9.95378 z m 4.732128,0 c 0,-2.86724 1.585146,-5.73449 4.965237,-5.73449 3.403402,0 4.941926,2.86725 4.941926,5.73449 0,2.86725 -1.44528,5.7345 -4.941926,5.7345 -3.58989,0 -4.965237,-2.86725 -4.965237,-5.7345 z"
         style="font-style:normal;font-variant:normal;font-weight:normal;font-stretch:normal;font-family:'League Spartan';-inkscape-font-specification:'League Spartan';stroke-width:0.5827744"
         id="path962" />
      <path
         d="m 106.55371,431.59251 v 19.23156 h 7.29633 c 3.98618,0 6.29397,-2.19124 6.29397,-5.36153 0,-3.10036 -1.7017,-4.42908 -4.10273,-4.84868 1.63176,-0.83919 2.40103,-2.35441 2.40103,-4.12604 0,-3.65982 -2.61083,-4.89531 -5.92099,-4.89531 z m 4.38246,7.52945 v -4.14935 h 0.34967 c 1.9115,0 2.91387,0.58277 2.91387,1.95812 0,1.60845 -1.02568,2.19123 -2.91387,2.19123 z m 0,8.32202 v -4.54564 h 1.37535 c 2.07468,0 3.21691,0.62939 3.21691,2.40103 0,1.51521 -1.14223,2.14461 -3.21691,2.14461 z"
         style="font-style:normal;font-variant:normal;font-weight:normal;font-stretch:normal;font-family:'League Spartan';-inkscape-font-specification:'League Spartan';stroke-width:0.5827744"
         id="path964" />
      <path
         d="m 131.39118,431.59251 h -4.05611 l -7.76255,19.23156 h 4.70882 l 1.42197,-3.84631 h 7.31964 l 1.42197,3.84631 h 4.70882 z m 0.13987,11.53894 h -4.33584 l 2.14461,-5.59464 h 0.0466 z"
         style="font-style:normal;font-variant:normal;font-weight:normal;font-stretch:normal;font-family:'League Spartan';-inkscape-font-specification:'League Spartan';stroke-width:0.5827744"
         id="path966" />
      <path
         d="m 139.8811,431.59251 v 19.23156 h 4.38247 v -7.59938 l 5.87436,7.59938 h 5.57132 l -6.62031,-7.94905 c 2.35441,-0.74595 3.93955,-2.68076 3.93955,-5.57132 0,-3.77638 -2.70407,-5.71119 -6.27065,-5.71119 z m 4.38247,8.53182 v -5.03517 h 0.51284 c 1.65508,0 3.63651,0.11655 3.63651,2.51758 0,2.40104 -1.98143,2.51759 -3.63651,2.51759 z"
         style="font-style:normal;font-variant:normal;font-weight:normal;font-stretch:normal;font-family:'League Spartan';-inkscape-font-specification:'League Spartan';stroke-width:0.5827744"
         id="path968" />
    </g>
  </g>
</svg>
